('C:\\Users\\PC\\Desktop\\ROBOTO\\build\\main\\PKG-00.pkg',
 {'BINARY': 1,
  'DATA': 1,
  'EXECUTABLE': 1,
  'EXTENSION': 1,
  'PYMODULE': 1,
  'PYSOURCE': 1,
  'PYZ': 0},
 [('PYZ-00.pyz',
   'C:\\Users\\PC\\Desktop\\ROBOTO\\build\\main\\PYZ-00.pyz',
   'PYZ'),
  ('struct',
   'c:\\users\\pc\\miniconda3\\envs\\robotica\\lib\\struct.pyo',
   'PYMODULE'),
  ('pyimod01_os_path',
   'c:\\users\\pc\\miniconda3\\envs\\robotica\\lib\\site-packages\\PyInstaller\\loader\\pyimod01_os_path.pyc',
   'PYMODULE'),
  ('pyimod02_archive',
   'c:\\users\\pc\\miniconda3\\envs\\robotica\\lib\\site-packages\\PyInstaller\\loader\\pyimod02_archive.pyc',
   'PYMODULE'),
  ('pyimod03_importers',
   'c:\\users\\pc\\miniconda3\\envs\\robotica\\lib\\site-packages\\PyInstaller\\loader\\pyimod03_importers.pyc',
   'PYMODULE'),
  ('pyiboot01_bootstrap',
   'c:\\users\\pc\\miniconda3\\envs\\robotica\\lib\\site-packages\\PyInstaller\\loader\\pyiboot01_bootstrap.py',
   'PYSOURCE'),
  ('pyi_rth_pkgres',
   'c:\\users\\pc\\miniconda3\\envs\\robotica\\lib\\site-packages\\PyInstaller\\hooks\\rthooks\\pyi_rth_pkgres.py',
   'PYSOURCE'),
  ('pyi_rth_multiprocessing',
   'c:\\users\\pc\\miniconda3\\envs\\robotica\\lib\\site-packages\\PyInstaller\\hooks\\rthooks\\pyi_rth_multiprocessing.py',
   'PYSOURCE'),
  ('pyi_rth_pyqt5',
   'c:\\users\\pc\\miniconda3\\envs\\robotica\\lib\\site-packages\\PyInstaller\\hooks\\rthooks\\pyi_rth_pyqt5.py',
   'PYSOURCE'),
  ('pyi_rth_pyside2',
   'c:\\users\\pc\\miniconda3\\envs\\robotica\\lib\\site-packages\\PyInstaller\\hooks\\rthooks\\pyi_rth_pyside2.py',
   'PYSOURCE'),
  ('main', 'C:\\Users\\PC\\Desktop\\ROBOTO\\main.py', 'PYSOURCE'),
  ('api-ms-win-crt-runtime-l1-1-0.dll',
   'c:\\users\\pc\\miniconda3\\envs\\robotica\\api-ms-win-crt-runtime-l1-1-0.dll',
   'BINARY'),
  ('VCRUNTIME140.dll',
   'c:\\users\\pc\\miniconda3\\envs\\robotica\\VCRUNTIME140.dll',
   'BINARY'),
  ('api-ms-win-crt-locale-l1-1-0.dll',
   'c:\\users\\pc\\miniconda3\\envs\\robotica\\api-ms-win-crt-locale-l1-1-0.dll',
   'BINARY'),
  ('api-ms-win-crt-heap-l1-1-0.dll',
   'c:\\users\\pc\\miniconda3\\envs\\robotica\\api-ms-win-crt-heap-l1-1-0.dll',
   'BINARY'),
  ('api-ms-win-crt-math-l1-1-0.dll',
   'c:\\users\\pc\\miniconda3\\envs\\robotica\\api-ms-win-crt-math-l1-1-0.dll',
   'BINARY'),
  ('python36.dll',
   'c:\\users\\pc\\miniconda3\\envs\\robotica\\python36.dll',
   'BINARY'),
  ('api-ms-win-crt-stdio-l1-1-0.dll',
   'c:\\users\\pc\\miniconda3\\envs\\robotica\\api-ms-win-crt-stdio-l1-1-0.dll',
   'BINARY'),
  ('ucrtbase.dll',
   'c:\\users\\pc\\miniconda3\\envs\\robotica\\ucrtbase.dll',
   'BINARY'),
  ('api-ms-win-crt-string-l1-1-0.dll',
   'c:\\users\\pc\\miniconda3\\envs\\robotica\\api-ms-win-crt-string-l1-1-0.dll',
   'BINARY'),
  ('api-ms-win-crt-convert-l1-1-0.dll',
   'c:\\users\\pc\\miniconda3\\envs\\robotica\\api-ms-win-crt-convert-l1-1-0.dll',
   'BINARY'),
  ('api-ms-win-crt-environment-l1-1-0.dll',
   'c:\\users\\pc\\miniconda3\\envs\\robotica\\api-ms-win-crt-environment-l1-1-0.dll',
   'BINARY'),
  ('api-ms-win-crt-process-l1-1-0.dll',
   'c:\\users\\pc\\miniconda3\\envs\\robotica\\api-ms-win-crt-process-l1-1-0.dll',
   'BINARY'),
  ('api-ms-win-crt-conio-l1-1-0.dll',
   'c:\\users\\pc\\miniconda3\\envs\\robotica\\api-ms-win-crt-conio-l1-1-0.dll',
   'BINARY'),
  ('api-ms-win-crt-filesystem-l1-1-0.dll',
   'c:\\users\\pc\\miniconda3\\envs\\robotica\\api-ms-win-crt-filesystem-l1-1-0.dll',
   'BINARY'),
  ('api-ms-win-crt-time-l1-1-0.dll',
   'c:\\users\\pc\\miniconda3\\envs\\robotica\\api-ms-win-crt-time-l1-1-0.dll',
   'BINARY'),
  ('api-ms-win-core-memory-l1-1-0.dll',
   'c:\\users\\pc\\miniconda3\\envs\\robotica\\api-ms-win-core-memory-l1-1-0.dll',
   'BINARY'),
  ('api-ms-win-core-processenvironment-l1-1-0.dll',
   'c:\\users\\pc\\miniconda3\\envs\\robotica\\api-ms-win-core-processenvironment-l1-1-0.dll',
   'BINARY'),
  ('api-ms-win-core-localization-l1-2-0.dll',
   'c:\\users\\pc\\miniconda3\\envs\\robotica\\api-ms-win-core-localization-l1-2-0.dll',
   'BINARY'),
  ('api-ms-win-core-console-l1-1-0.dll',
   'c:\\users\\pc\\miniconda3\\envs\\robotica\\api-ms-win-core-console-l1-1-0.dll',
   'BINARY'),
  ('api-ms-win-core-interlocked-l1-1-0.dll',
   'c:\\users\\pc\\miniconda3\\envs\\robotica\\api-ms-win-core-interlocked-l1-1-0.dll',
   'BINARY'),
  ('api-ms-win-core-handle-l1-1-0.dll',
   'c:\\users\\pc\\miniconda3\\envs\\robotica\\api-ms-win-core-handle-l1-1-0.dll',
   'BINARY'),
  ('api-ms-win-core-processthreads-l1-1-0.dll',
   'c:\\users\\pc\\miniconda3\\envs\\robotica\\api-ms-win-core-processthreads-l1-1-0.dll',
   'BINARY'),
  ('api-ms-win-core-profile-l1-1-0.dll',
   'c:\\users\\pc\\miniconda3\\envs\\robotica\\api-ms-win-core-profile-l1-1-0.dll',
   'BINARY'),
  ('api-ms-win-core-datetime-l1-1-0.dll',
   'c:\\users\\pc\\miniconda3\\envs\\robotica\\api-ms-win-core-datetime-l1-1-0.dll',
   'BINARY'),
  ('api-ms-win-core-debug-l1-1-0.dll',
   'c:\\users\\pc\\miniconda3\\envs\\robotica\\api-ms-win-core-debug-l1-1-0.dll',
   'BINARY'),
  ('api-ms-win-core-string-l1-1-0.dll',
   'c:\\users\\pc\\miniconda3\\envs\\robotica\\api-ms-win-core-string-l1-1-0.dll',
   'BINARY'),
  ('api-ms-win-core-namedpipe-l1-1-0.dll',
   'c:\\users\\pc\\miniconda3\\envs\\robotica\\api-ms-win-core-namedpipe-l1-1-0.dll',
   'BINARY'),
  ('api-ms-win-core-heap-l1-1-0.dll',
   'c:\\users\\pc\\miniconda3\\envs\\robotica\\api-ms-win-core-heap-l1-1-0.dll',
   'BINARY'),
  ('api-ms-win-core-libraryloader-l1-1-0.dll',
   'c:\\users\\pc\\miniconda3\\envs\\robotica\\api-ms-win-core-libraryloader-l1-1-0.dll',
   'BINARY'),
  ('api-ms-win-core-file-l2-1-0.dll',
   'c:\\users\\pc\\miniconda3\\envs\\robotica\\api-ms-win-core-file-l2-1-0.dll',
   'BINARY'),
  ('api-ms-win-core-util-l1-1-0.dll',
   'c:\\users\\pc\\miniconda3\\envs\\robotica\\api-ms-win-core-util-l1-1-0.dll',
   'BINARY'),
  ('api-ms-win-core-rtlsupport-l1-1-0.dll',
   'c:\\users\\pc\\miniconda3\\envs\\robotica\\api-ms-win-core-rtlsupport-l1-1-0.dll',
   'BINARY'),
  ('api-ms-win-core-errorhandling-l1-1-0.dll',
   'c:\\users\\pc\\miniconda3\\envs\\robotica\\api-ms-win-core-errorhandling-l1-1-0.dll',
   'BINARY'),
  ('api-ms-win-core-synch-l1-2-0.dll',
   'c:\\users\\pc\\miniconda3\\envs\\robotica\\api-ms-win-core-synch-l1-2-0.dll',
   'BINARY'),
  ('api-ms-win-core-synch-l1-1-0.dll',
   'c:\\users\\pc\\miniconda3\\envs\\robotica\\api-ms-win-core-synch-l1-1-0.dll',
   'BINARY'),
  ('api-ms-win-core-sysinfo-l1-1-0.dll',
   'c:\\users\\pc\\miniconda3\\envs\\robotica\\api-ms-win-core-sysinfo-l1-1-0.dll',
   'BINARY'),
  ('api-ms-win-core-file-l1-2-0.dll',
   'c:\\users\\pc\\miniconda3\\envs\\robotica\\api-ms-win-core-file-l1-2-0.dll',
   'BINARY'),
  ('api-ms-win-core-file-l1-1-0.dll',
   'c:\\users\\pc\\miniconda3\\envs\\robotica\\api-ms-win-core-file-l1-1-0.dll',
   'BINARY'),
  ('api-ms-win-core-timezone-l1-1-0.dll',
   'c:\\users\\pc\\miniconda3\\envs\\robotica\\api-ms-win-core-timezone-l1-1-0.dll',
   'BINARY'),
  ('api-ms-win-core-processthreads-l1-1-1.dll',
   'c:\\users\\pc\\miniconda3\\envs\\robotica\\api-ms-win-core-processthreads-l1-1-1.dll',
   'BINARY'),
  ('PyQt5\\Qt\\plugins\\styles\\qwindowsvistastyle.dll',
   'C:\\users\\pc\\miniconda3\\envs\\robotica\\lib\\site-packages\\PyQt5\\Qt\\plugins\\styles\\qwindowsvistastyle.dll',
   'BINARY'),
  ('libbispeu.7AH3PCQ2E2NGLC3AQD7FFAH73KGJTZCJ.gfortran-win_amd64.dll',
   'c:\\users\\pc\\miniconda3\\envs\\robotica\\lib\\site-packages\\scipy\\.libs\\libbispeu.7AH3PCQ2E2NGLC3AQD7FFAH73KGJTZCJ.gfortran-win_amd64.dll',
   'BINARY'),
  ('PyQt5\\Qt\\plugins\\imageformats\\qtga.dll',
   'C:\\users\\pc\\miniconda3\\envs\\robotica\\lib\\site-packages\\PyQt5\\Qt\\plugins\\imageformats\\qtga.dll',
   'BINARY'),
  ('lib_test_fo.JF5HTWMUPBXWGAYEBVEJU3OZAHTSVKCT.gfortran-win_amd64.dll',
   'c:\\users\\pc\\miniconda3\\envs\\robotica\\lib\\site-packages\\scipy\\.libs\\lib_test_fo.JF5HTWMUPBXWGAYEBVEJU3OZAHTSVKCT.gfortran-win_amd64.dll',
   'BINARY'),
  ('libbanded5x.NKMRINGF5FGR5WNEWQSR3V2GW5GDHV5R.gfortran-win_amd64.dll',
   'c:\\users\\pc\\miniconda3\\envs\\robotica\\lib\\site-packages\\scipy\\.libs\\libbanded5x.NKMRINGF5FGR5WNEWQSR3V2GW5GDHV5R.gfortran-win_amd64.dll',
   'BINARY'),
  ('PyQt5\\Qt\\plugins\\platforms\\qwindows.dll',
   'C:\\users\\pc\\miniconda3\\envs\\robotica\\lib\\site-packages\\PyQt5\\Qt\\plugins\\platforms\\qwindows.dll',
   'BINARY'),
  ('opengl32sw.dll',
   'C:\\users\\pc\\miniconda3\\envs\\robotica\\lib\\site-packages\\PyQt5\\Qt\\bin\\opengl32sw.dll',
   'BINARY'),
  ('libblkdta00.WSN4HPNPK7GMGPOKZ2B5F4DIA6DGGNJP.gfortran-win_amd64.dll',
   'c:\\users\\pc\\miniconda3\\envs\\robotica\\lib\\site-packages\\scipy\\.libs\\libblkdta00.WSN4HPNPK7GMGPOKZ2B5F4DIA6DGGNJP.gfortran-win_amd64.dll',
   'BINARY'),
  ('d3dcompiler_47.dll',
   'C:\\users\\pc\\miniconda3\\envs\\robotica\\lib\\site-packages\\PyQt5\\Qt\\bin\\d3dcompiler_47.dll',
   'BINARY'),
  ('PyQt5\\Qt\\plugins\\imageformats\\qjpeg.dll',
   'C:\\users\\pc\\miniconda3\\envs\\robotica\\lib\\site-packages\\PyQt5\\Qt\\plugins\\imageformats\\qjpeg.dll',
   'BINARY'),
  ('libspecfun.LQCTHMCYNULEOOGKIO6AGREE6D6V37RU.gfortran-win_amd64.dll',
   'c:\\users\\pc\\miniconda3\\envs\\robotica\\lib\\site-packages\\scipy\\.libs\\libspecfun.LQCTHMCYNULEOOGKIO6AGREE6D6V37RU.gfortran-win_amd64.dll',
   'BINARY'),
  ('PyQt5\\Qt\\plugins\\platforms\\qwebgl.dll',
   'C:\\users\\pc\\miniconda3\\envs\\robotica\\lib\\site-packages\\PyQt5\\Qt\\plugins\\platforms\\qwebgl.dll',
   'BINARY'),
  ('libopenblas.WCDJNK7YVMPZQ2ME2ZZHJJRJ3JIKNDB7.gfortran-win_amd64.dll',
   'c:\\users\\pc\\miniconda3\\envs\\robotica\\lib\\site-packages\\numpy\\.libs\\libopenblas.WCDJNK7YVMPZQ2ME2ZZHJJRJ3JIKNDB7.gfortran-win_amd64.dll',
   'BINARY'),
  ('libwrap_dum.4OKEQUIJS7J57QI5RHSLRN53Q6K2SSBN.gfortran-win_amd64.dll',
   'c:\\users\\pc\\miniconda3\\envs\\robotica\\lib\\site-packages\\scipy\\.libs\\libwrap_dum.4OKEQUIJS7J57QI5RHSLRN53Q6K2SSBN.gfortran-win_amd64.dll',
   'BINARY'),
  ('libEGL.dll',
   'C:\\users\\pc\\miniconda3\\envs\\robotica\\lib\\site-packages\\PyQt5\\Qt\\bin\\libEGL.dll',
   'BINARY'),
  ('PyQt5\\Qt\\plugins\\platforms\\qminimal.dll',
   'C:\\users\\pc\\miniconda3\\envs\\robotica\\lib\\site-packages\\PyQt5\\Qt\\plugins\\platforms\\qminimal.dll',
   'BINARY'),
  ('PyQt5\\Qt\\plugins\\platformthemes\\qxdgdesktopportal.dll',
   'C:\\users\\pc\\miniconda3\\envs\\robotica\\lib\\site-packages\\PyQt5\\Qt\\plugins\\platformthemes\\qxdgdesktopportal.dll',
   'BINARY'),
  ('libdfft.X2JVNR6ML5DAEYDCZVRAE3VCPY3VPZDF.gfortran-win_amd64.dll',
   'c:\\users\\pc\\miniconda3\\envs\\robotica\\lib\\site-packages\\scipy\\.libs\\libdfft.X2JVNR6ML5DAEYDCZVRAE3VCPY3VPZDF.gfortran-win_amd64.dll',
   'BINARY'),
  ('PyQt5\\Qt\\plugins\\platforms\\qoffscreen.dll',
   'C:\\users\\pc\\miniconda3\\envs\\robotica\\lib\\site-packages\\PyQt5\\Qt\\plugins\\platforms\\qoffscreen.dll',
   'BINARY'),
  ('libcobyla2.25EVUSEBAW7VKISARB7LO3UGZPN2HXE3.gfortran-win_amd64.dll',
   'c:\\users\\pc\\miniconda3\\envs\\robotica\\lib\\site-packages\\scipy\\.libs\\libcobyla2.25EVUSEBAW7VKISARB7LO3UGZPN2HXE3.gfortran-win_amd64.dll',
   'BINARY'),
  ('libnnls.4HUTGAJQTI623WTX372VAIIWXRLC62YU.gfortran-win_amd64.dll',
   'c:\\users\\pc\\miniconda3\\envs\\robotica\\lib\\site-packages\\scipy\\.libs\\libnnls.4HUTGAJQTI623WTX372VAIIWXRLC62YU.gfortran-win_amd64.dll',
   'BINARY'),
  ('lib_arpack-.BOBRUML6AHIMMGJPIPOATOFJLOUCET5Y.gfortran-win_amd64.dll',
   'c:\\users\\pc\\miniconda3\\envs\\robotica\\lib\\site-packages\\scipy\\.libs\\lib_arpack-.BOBRUML6AHIMMGJPIPOATOFJLOUCET5Y.gfortran-win_amd64.dll',
   'BINARY'),
  ('PyQt5\\Qt\\plugins\\imageformats\\qsvg.dll',
   'C:\\users\\pc\\miniconda3\\envs\\robotica\\lib\\site-packages\\PyQt5\\Qt\\plugins\\imageformats\\qsvg.dll',
   'BINARY'),
  ('libdet.RZG37BHYIUL3BAFFGKSO4AT6QWB5DUCM.gfortran-win_amd64.dll',
   'c:\\users\\pc\\miniconda3\\envs\\robotica\\lib\\site-packages\\scipy\\.libs\\libdet.RZG37BHYIUL3BAFFGKSO4AT6QWB5DUCM.gfortran-win_amd64.dll',
   'BINARY'),
  ('libdfitpack.MZYUXJTB2FLA7FGIMFMCI6VDTCFSQ5UM.gfortran-win_amd64.dll',
   'c:\\users\\pc\\miniconda3\\envs\\robotica\\lib\\site-packages\\scipy\\.libs\\libdfitpack.MZYUXJTB2FLA7FGIMFMCI6VDTCFSQ5UM.gfortran-win_amd64.dll',
   'BINARY'),
  ('PyQt5\\Qt\\plugins\\imageformats\\qwebp.dll',
   'C:\\users\\pc\\miniconda3\\envs\\robotica\\lib\\site-packages\\PyQt5\\Qt\\plugins\\imageformats\\qwebp.dll',
   'BINARY'),
  ('libvode-f2p.2SHGPNPCOSPND5J5CHLHID7V56V5TJMC.gfortran-win_amd64.dll',
   'c:\\users\\pc\\miniconda3\\envs\\robotica\\lib\\site-packages\\scipy\\.libs\\libvode-f2p.2SHGPNPCOSPND5J5CHLHID7V56V5TJMC.gfortran-win_amd64.dll',
   'BINARY'),
  ('lib_blas_su.KJH66ZL3ATTCRFQDEPPF3TTWBC2FPJQA.gfortran-win_amd64.dll',
   'c:\\users\\pc\\miniconda3\\envs\\robotica\\lib\\site-packages\\scipy\\.libs\\lib_blas_su.KJH66ZL3ATTCRFQDEPPF3TTWBC2FPJQA.gfortran-win_amd64.dll',
   'BINARY'),
  ('libd_odr.ZYTT4RXZOXDIDVOIRD5VWGZHUOUCZ74Q.gfortran-win_amd64.dll',
   'c:\\users\\pc\\miniconda3\\envs\\robotica\\lib\\site-packages\\scipy\\.libs\\libd_odr.ZYTT4RXZOXDIDVOIRD5VWGZHUOUCZ74Q.gfortran-win_amd64.dll',
   'BINARY'),
  ('PyQt5\\Qt\\plugins\\imageformats\\qwbmp.dll',
   'C:\\users\\pc\\miniconda3\\envs\\robotica\\lib\\site-packages\\PyQt5\\Qt\\plugins\\imageformats\\qwbmp.dll',
   'BINARY'),
  ('PyQt5\\Qt\\plugins\\imageformats\\qtiff.dll',
   'C:\\users\\pc\\miniconda3\\envs\\robotica\\lib\\site-packages\\PyQt5\\Qt\\plugins\\imageformats\\qtiff.dll',
   'BINARY'),
  ('libslsqp_op.RGGN6ZOFD2K47X7YRNDYCM7JFP4AGLER.gfortran-win_amd64.dll',
   'c:\\users\\pc\\miniconda3\\envs\\robotica\\lib\\site-packages\\scipy\\.libs\\libslsqp_op.RGGN6ZOFD2K47X7YRNDYCM7JFP4AGLER.gfortran-win_amd64.dll',
   'BINARY'),
  ('msvcp140.dll',
   'c:\\users\\pc\\miniconda3\\envs\\robotica\\lib\\site-packages\\scipy\\.libs\\msvcp140.dll',
   'BINARY'),
  ('libdgamln.A6YUF7OYSXOSUBJEE2EWPPZXEXNHTMFF.gfortran-win_amd64.dll',
   'c:\\users\\pc\\miniconda3\\envs\\robotica\\lib\\site-packages\\scipy\\.libs\\libdgamln.A6YUF7OYSXOSUBJEE2EWPPZXEXNHTMFF.gfortran-win_amd64.dll',
   'BINARY'),
  ('lib_dop-f2p.6BP7ZEE3VX7IIV3CKY4GJM3JXLFTN2TU.gfortran-win_amd64.dll',
   'c:\\users\\pc\\miniconda3\\envs\\robotica\\lib\\site-packages\\scipy\\.libs\\lib_dop-f2p.6BP7ZEE3VX7IIV3CKY4GJM3JXLFTN2TU.gfortran-win_amd64.dll',
   'BINARY'),
  ('PyQt5\\Qt\\plugins\\imageformats\\qico.dll',
   'C:\\users\\pc\\miniconda3\\envs\\robotica\\lib\\site-packages\\PyQt5\\Qt\\plugins\\imageformats\\qico.dll',
   'BINARY'),
  ('libgetbreak.VSHWA3MEQ2LKV523TWXBADDHMWWXC3LA.gfortran-win_amd64.dll',
   'c:\\users\\pc\\miniconda3\\envs\\robotica\\lib\\site-packages\\scipy\\.libs\\libgetbreak.VSHWA3MEQ2LKV523TWXBADDHMWWXC3LA.gfortran-win_amd64.dll',
   'BINARY'),
  ('libchkder.G7WSOGIYYQO3UWFVEZ3PPXCXR53ADVPA.gfortran-win_amd64.dll',
   'c:\\users\\pc\\miniconda3\\envs\\robotica\\lib\\site-packages\\scipy\\.libs\\libchkder.G7WSOGIYYQO3UWFVEZ3PPXCXR53ADVPA.gfortran-win_amd64.dll',
   'BINARY'),
  ('libopenblas.3HBPCJB5BPQGKWVZAVEBXNNJ2Q2G3TUP.gfortran-win_amd64.dll',
   'c:\\users\\pc\\miniconda3\\envs\\robotica\\lib\\site-packages\\scipy\\.libs\\libopenblas.3HBPCJB5BPQGKWVZAVEBXNNJ2Q2G3TUP.gfortran-win_amd64.dll',
   'BINARY'),
  ('PyQt5\\Qt\\plugins\\imageformats\\qicns.dll',
   'C:\\users\\pc\\miniconda3\\envs\\robotica\\lib\\site-packages\\PyQt5\\Qt\\plugins\\imageformats\\qicns.dll',
   'BINARY'),
  ('libdqag.KTRQU4MMU2FVYZ3FIIKRVTYD7OWCN3JJ.gfortran-win_amd64.dll',
   'c:\\users\\pc\\miniconda3\\envs\\robotica\\lib\\site-packages\\scipy\\.libs\\libdqag.KTRQU4MMU2FVYZ3FIIKRVTYD7OWCN3JJ.gfortran-win_amd64.dll',
   'BINARY'),
  ('libmvndst.ESZZP47EV6RKCFYTPDCSXD6LWVEBJFUI.gfortran-win_amd64.dll',
   'c:\\users\\pc\\miniconda3\\envs\\robotica\\lib\\site-packages\\scipy\\.libs\\libmvndst.ESZZP47EV6RKCFYTPDCSXD6LWVEBJFUI.gfortran-win_amd64.dll',
   'BINARY'),
  ('libansari.R6EA3HQP5KZ6TAXU4Y4ZVTRPT7UVA53Z.gfortran-win_amd64.dll',
   'c:\\users\\pc\\miniconda3\\envs\\robotica\\lib\\site-packages\\scipy\\.libs\\libansari.R6EA3HQP5KZ6TAXU4Y4ZVTRPT7UVA53Z.gfortran-win_amd64.dll',
   'BINARY'),
  ('libdcsrch.I2AOPDCXAPDRFNPWY55H5UE7XZSU5CVN.gfortran-win_amd64.dll',
   'c:\\users\\pc\\miniconda3\\envs\\robotica\\lib\\site-packages\\scipy\\.libs\\libdcsrch.I2AOPDCXAPDRFNPWY55H5UE7XZSU5CVN.gfortran-win_amd64.dll',
   'BINARY'),
  ('libwrap_dum.F7ESZJLC6VJXK5TRSFA7OLTZ6JQTMZ5B.gfortran-win_amd64.dll',
   'c:\\users\\pc\\miniconda3\\envs\\robotica\\lib\\site-packages\\scipy\\.libs\\libwrap_dum.F7ESZJLC6VJXK5TRSFA7OLTZ6JQTMZ5B.gfortran-win_amd64.dll',
   'BINARY'),
  ('liblsoda-f2.EEP7LI4LTN6FPHOSDEU5LYGY2UUBPI33.gfortran-win_amd64.dll',
   'c:\\users\\pc\\miniconda3\\envs\\robotica\\lib\\site-packages\\scipy\\.libs\\liblsoda-f2.EEP7LI4LTN6FPHOSDEU5LYGY2UUBPI33.gfortran-win_amd64.dll',
   'BINARY'),
  ('PyQt5\\Qt\\plugins\\imageformats\\qgif.dll',
   'C:\\users\\pc\\miniconda3\\envs\\robotica\\lib\\site-packages\\PyQt5\\Qt\\plugins\\imageformats\\qgif.dll',
   'BINARY'),
  ('libGLESv2.dll',
   'C:\\users\\pc\\miniconda3\\envs\\robotica\\lib\\site-packages\\PySide2\\libGLESv2.dll',
   'BINARY'),
  ('liblbfgsb.XQZQNG4ZDYADZW43B4FTJGKLG7EUHR75.gfortran-win_amd64.dll',
   'c:\\users\\pc\\miniconda3\\envs\\robotica\\lib\\site-packages\\scipy\\.libs\\liblbfgsb.XQZQNG4ZDYADZW43B4FTJGKLG7EUHR75.gfortran-win_amd64.dll',
   'BINARY'),
  ('PyQt5\\Qt\\plugins\\iconengines\\qsvgicon.dll',
   'C:\\users\\pc\\miniconda3\\envs\\robotica\\lib\\site-packages\\PyQt5\\Qt\\plugins\\iconengines\\qsvgicon.dll',
   'BINARY'),
  ('select',
   'c:\\users\\pc\\miniconda3\\envs\\robotica\\DLLs\\select.pyd',
   'EXTENSION'),
  ('_multiprocessing',
   'c:\\users\\pc\\miniconda3\\envs\\robotica\\DLLs\\_multiprocessing.pyd',
   'EXTENSION'),
  ('_hashlib',
   'c:\\users\\pc\\miniconda3\\envs\\robotica\\DLLs\\_hashlib.pyd',
   'EXTENSION'),
  ('_lzma',
   'c:\\users\\pc\\miniconda3\\envs\\robotica\\DLLs\\_lzma.pyd',
   'EXTENSION'),
  ('_bz2',
   'c:\\users\\pc\\miniconda3\\envs\\robotica\\DLLs\\_bz2.pyd',
   'EXTENSION'),
  ('_socket',
   'c:\\users\\pc\\miniconda3\\envs\\robotica\\DLLs\\_socket.pyd',
   'EXTENSION'),
  ('_ctypes',
   'c:\\users\\pc\\miniconda3\\envs\\robotica\\DLLs\\_ctypes.pyd',
   'EXTENSION'),
  ('pyexpat',
   'c:\\users\\pc\\miniconda3\\envs\\robotica\\DLLs\\pyexpat.pyd',
   'EXTENSION'),
  ('_ssl',
   'c:\\users\\pc\\miniconda3\\envs\\robotica\\DLLs\\_ssl.pyd',
   'EXTENSION'),
  ('unicodedata',
   'c:\\users\\pc\\miniconda3\\envs\\robotica\\DLLs\\unicodedata.pyd',
   'EXTENSION'),
  ('_decimal',
   'c:\\users\\pc\\miniconda3\\envs\\robotica\\DLLs\\_decimal.pyd',
   'EXTENSION'),
  ('_distutils_findvs',
   'c:\\users\\pc\\miniconda3\\envs\\robotica\\DLLs\\_distutils_findvs.pyd',
   'EXTENSION'),
  ('scipy._lib._fpumode',
   'c:\\users\\pc\\miniconda3\\envs\\robotica\\lib\\site-packages\\scipy\\_lib\\_fpumode.cp36-win_amd64.pyd',
   'EXTENSION'),
  ('scipy._lib._ccallback_c',
   'c:\\users\\pc\\miniconda3\\envs\\robotica\\lib\\site-packages\\scipy\\_lib\\_ccallback_c.cp36-win_amd64.pyd',
   'EXTENSION'),
  ('scipy._lib.messagestream',
   'c:\\users\\pc\\miniconda3\\envs\\robotica\\lib\\site-packages\\scipy\\_lib\\messagestream.cp36-win_amd64.pyd',
   'EXTENSION'),
  ('scipy.fft._pocketfft.pypocketfft',
   'c:\\users\\pc\\miniconda3\\envs\\robotica\\lib\\site-packages\\scipy\\fft\\_pocketfft\\pypocketfft.cp36-win_amd64.pyd',
   'EXTENSION'),
  ('scipy._lib._uarray._uarray',
   'c:\\users\\pc\\miniconda3\\envs\\robotica\\lib\\site-packages\\scipy\\_lib\\_uarray\\_uarray.cp36-win_amd64.pyd',
   'EXTENSION'),
  ('numpy.core._multiarray_umath',
   'c:\\users\\pc\\miniconda3\\envs\\robotica\\lib\\site-packages\\numpy\\core\\_multiarray_umath.cp36-win_amd64.pyd',
   'EXTENSION'),
  ('numpy.core._multiarray_tests',
   'c:\\users\\pc\\miniconda3\\envs\\robotica\\lib\\site-packages\\numpy\\core\\_multiarray_tests.cp36-win_amd64.pyd',
   'EXTENSION'),
  ('numpy.linalg.lapack_lite',
   'c:\\users\\pc\\miniconda3\\envs\\robotica\\lib\\site-packages\\numpy\\linalg\\lapack_lite.cp36-win_amd64.pyd',
   'EXTENSION'),
  ('numpy.random.mtrand',
   'c:\\users\\pc\\miniconda3\\envs\\robotica\\lib\\site-packages\\numpy\\random\\mtrand.cp36-win_amd64.pyd',
   'EXTENSION'),
  ('numpy.random._sfc64',
   'c:\\users\\pc\\miniconda3\\envs\\robotica\\lib\\site-packages\\numpy\\random\\_sfc64.cp36-win_amd64.pyd',
   'EXTENSION'),
  ('numpy.random._philox',
   'c:\\users\\pc\\miniconda3\\envs\\robotica\\lib\\site-packages\\numpy\\random\\_philox.cp36-win_amd64.pyd',
   'EXTENSION'),
  ('numpy.random._pcg64',
   'c:\\users\\pc\\miniconda3\\envs\\robotica\\lib\\site-packages\\numpy\\random\\_pcg64.cp36-win_amd64.pyd',
   'EXTENSION'),
  ('numpy.random._mt19937',
   'c:\\users\\pc\\miniconda3\\envs\\robotica\\lib\\site-packages\\numpy\\random\\_mt19937.cp36-win_amd64.pyd',
   'EXTENSION'),
  ('numpy.random.bit_generator',
   'c:\\users\\pc\\miniconda3\\envs\\robotica\\lib\\site-packages\\numpy\\random\\bit_generator.cp36-win_amd64.pyd',
   'EXTENSION'),
  ('numpy.random._generator',
   'c:\\users\\pc\\miniconda3\\envs\\robotica\\lib\\site-packages\\numpy\\random\\_generator.cp36-win_amd64.pyd',
   'EXTENSION'),
  ('numpy.random._bounded_integers',
   'c:\\users\\pc\\miniconda3\\envs\\robotica\\lib\\site-packages\\numpy\\random\\_bounded_integers.cp36-win_amd64.pyd',
   'EXTENSION'),
  ('numpy.random._common',
   'c:\\users\\pc\\miniconda3\\envs\\robotica\\lib\\site-packages\\numpy\\random\\_common.cp36-win_amd64.pyd',
   'EXTENSION'),
  ('numpy.fft._pocketfft_internal',
   'c:\\users\\pc\\miniconda3\\envs\\robotica\\lib\\site-packages\\numpy\\fft\\_pocketfft_internal.cp36-win_amd64.pyd',
   'EXTENSION'),
  ('numpy.linalg._umath_linalg',
   'c:\\users\\pc\\miniconda3\\envs\\robotica\\lib\\site-packages\\numpy\\linalg\\_umath_linalg.cp36-win_amd64.pyd',
   'EXTENSION'),
  ('scipy.special._ellip_harm_2',
   'c:\\users\\pc\\miniconda3\\envs\\robotica\\lib\\site-packages\\scipy\\special\\_ellip_harm_2.cp36-win_amd64.pyd',
   'EXTENSION'),
  ('scipy.sparse.csgraph._tools',
   'c:\\users\\pc\\miniconda3\\envs\\robotica\\lib\\site-packages\\scipy\\sparse\\csgraph\\_tools.cp36-win_amd64.pyd',
   'EXTENSION'),
  ('scipy.sparse.csgraph._reordering',
   'c:\\users\\pc\\miniconda3\\envs\\robotica\\lib\\site-packages\\scipy\\sparse\\csgraph\\_reordering.cp36-win_amd64.pyd',
   'EXTENSION'),
  ('scipy.sparse.csgraph._matching',
   'c:\\users\\pc\\miniconda3\\envs\\robotica\\lib\\site-packages\\scipy\\sparse\\csgraph\\_matching.cp36-win_amd64.pyd',
   'EXTENSION'),
  ('scipy.sparse.csgraph._flow',
   'c:\\users\\pc\\miniconda3\\envs\\robotica\\lib\\site-packages\\scipy\\sparse\\csgraph\\_flow.cp36-win_amd64.pyd',
   'EXTENSION'),
  ('scipy.sparse.csgraph._min_spanning_tree',
   'c:\\users\\pc\\miniconda3\\envs\\robotica\\lib\\site-packages\\scipy\\sparse\\csgraph\\_min_spanning_tree.cp36-win_amd64.pyd',
   'EXTENSION'),
  ('scipy.sparse.csgraph._traversal',
   'c:\\users\\pc\\miniconda3\\envs\\robotica\\lib\\site-packages\\scipy\\sparse\\csgraph\\_traversal.cp36-win_amd64.pyd',
   'EXTENSION'),
  ('scipy.sparse.csgraph._shortest_path',
   'c:\\users\\pc\\miniconda3\\envs\\robotica\\lib\\site-packages\\scipy\\sparse\\csgraph\\_shortest_path.cp36-win_amd64.pyd',
   'EXTENSION'),
  ('scipy.sparse._sparsetools',
   'c:\\users\\pc\\miniconda3\\envs\\robotica\\lib\\site-packages\\scipy\\sparse\\_sparsetools.cp36-win_amd64.pyd',
   'EXTENSION'),
  ('scipy.sparse._csparsetools',
   'c:\\users\\pc\\miniconda3\\envs\\robotica\\lib\\site-packages\\scipy\\sparse\\_csparsetools.cp36-win_amd64.pyd',
   'EXTENSION'),
  ('scipy.optimize._lsq.givens_elimination',
   'c:\\users\\pc\\miniconda3\\envs\\robotica\\lib\\site-packages\\scipy\\optimize\\_lsq\\givens_elimination.cp36-win_amd64.pyd',
   'EXTENSION'),
  ('scipy.optimize._lsap_module',
   'c:\\users\\pc\\miniconda3\\envs\\robotica\\lib\\site-packages\\scipy\\optimize\\_lsap_module.cp36-win_amd64.pyd',
   'EXTENSION'),
  ('scipy.linalg._fblas',
   'c:\\users\\pc\\miniconda3\\envs\\robotica\\lib\\site-packages\\scipy\\linalg\\_fblas.cp36-win_amd64.pyd',
   'EXTENSION'),
  ('scipy.optimize._bglu_dense',
   'c:\\users\\pc\\miniconda3\\envs\\robotica\\lib\\site-packages\\scipy\\optimize\\_bglu_dense.cp36-win_amd64.pyd',
   'EXTENSION'),
  ('scipy.optimize.__nnls',
   'c:\\users\\pc\\miniconda3\\envs\\robotica\\lib\\site-packages\\scipy\\optimize\\__nnls.cp36-win_amd64.pyd',
   'EXTENSION'),
  ('scipy.optimize._slsqp',
   'c:\\users\\pc\\miniconda3\\envs\\robotica\\lib\\site-packages\\scipy\\optimize\\_slsqp.cp36-win_amd64.pyd',
   'EXTENSION'),
  ('scipy.optimize._zeros',
   'c:\\users\\pc\\miniconda3\\envs\\robotica\\lib\\site-packages\\scipy\\optimize\\_zeros.cp36-win_amd64.pyd',
   'EXTENSION'),
  ('scipy.optimize._minpack',
   'c:\\users\\pc\\miniconda3\\envs\\robotica\\lib\\site-packages\\scipy\\optimize\\_minpack.cp36-win_amd64.pyd',
   'EXTENSION'),
  ('scipy.optimize._trlib._trlib',
   'c:\\users\\pc\\miniconda3\\envs\\robotica\\lib\\site-packages\\scipy\\optimize\\_trlib\\_trlib.cp36-win_amd64.pyd',
   'EXTENSION'),
  ('scipy.optimize._cobyla',
   'c:\\users\\pc\\miniconda3\\envs\\robotica\\lib\\site-packages\\scipy\\optimize\\_cobyla.cp36-win_amd64.pyd',
   'EXTENSION'),
  ('scipy.optimize.moduleTNC',
   'c:\\users\\pc\\miniconda3\\envs\\robotica\\lib\\site-packages\\scipy\\optimize\\moduleTNC.cp36-win_amd64.pyd',
   'EXTENSION'),
  ('scipy.optimize._lbfgsb',
   'c:\\users\\pc\\miniconda3\\envs\\robotica\\lib\\site-packages\\scipy\\optimize\\_lbfgsb.cp36-win_amd64.pyd',
   'EXTENSION'),
  ('scipy.optimize.minpack2',
   'c:\\users\\pc\\miniconda3\\envs\\robotica\\lib\\site-packages\\scipy\\optimize\\minpack2.cp36-win_amd64.pyd',
   'EXTENSION'),
  ('scipy.optimize._group_columns',
   'c:\\users\\pc\\miniconda3\\envs\\robotica\\lib\\site-packages\\scipy\\optimize\\_group_columns.cp36-win_amd64.pyd',
   'EXTENSION'),
  ('scipy.linalg._solve_toeplitz',
   'c:\\users\\pc\\miniconda3\\envs\\robotica\\lib\\site-packages\\scipy\\linalg\\_solve_toeplitz.cp36-win_amd64.pyd',
   'EXTENSION'),
  ('scipy.linalg._flapack',
   'c:\\users\\pc\\miniconda3\\envs\\robotica\\lib\\site-packages\\scipy\\linalg\\_flapack.cp36-win_amd64.pyd',
   'EXTENSION'),
  ('scipy.linalg._flinalg',
   'c:\\users\\pc\\miniconda3\\envs\\robotica\\lib\\site-packages\\scipy\\linalg\\_flinalg.cp36-win_amd64.pyd',
   'EXTENSION'),
  ('scipy.sparse.linalg.eigen.arpack._arpack',
   'c:\\users\\pc\\miniconda3\\envs\\robotica\\lib\\site-packages\\scipy\\sparse\\linalg\\eigen\\arpack\\_arpack.cp36-win_amd64.pyd',
   'EXTENSION'),
  ('scipy.sparse.linalg.dsolve._superlu',
   'c:\\users\\pc\\miniconda3\\envs\\robotica\\lib\\site-packages\\scipy\\sparse\\linalg\\dsolve\\_superlu.cp36-win_amd64.pyd',
   'EXTENSION'),
  ('scipy.sparse.linalg.isolve._iterative',
   'c:\\users\\pc\\miniconda3\\envs\\robotica\\lib\\site-packages\\scipy\\sparse\\linalg\\isolve\\_iterative.cp36-win_amd64.pyd',
   'EXTENSION'),
  ('scipy.interpolate.interpnd',
   'c:\\users\\pc\\miniconda3\\envs\\robotica\\lib\\site-packages\\scipy\\interpolate\\interpnd.cp36-win_amd64.pyd',
   'EXTENSION'),
  ('scipy.interpolate._ppoly',
   'c:\\users\\pc\\miniconda3\\envs\\robotica\\lib\\site-packages\\scipy\\interpolate\\_ppoly.cp36-win_amd64.pyd',
   'EXTENSION'),
  ('scipy.interpolate._bspl',
   'c:\\users\\pc\\miniconda3\\envs\\robotica\\lib\\site-packages\\scipy\\interpolate\\_bspl.cp36-win_amd64.pyd',
   'EXTENSION'),
  ('scipy.interpolate.dfitpack',
   'c:\\users\\pc\\miniconda3\\envs\\robotica\\lib\\site-packages\\scipy\\interpolate\\dfitpack.cp36-win_amd64.pyd',
   'EXTENSION'),
  ('scipy.interpolate._fitpack',
   'c:\\users\\pc\\miniconda3\\envs\\robotica\\lib\\site-packages\\scipy\\interpolate\\_fitpack.cp36-win_amd64.pyd',
   'EXTENSION'),
  ('scipy.integrate.lsoda',
   'c:\\users\\pc\\miniconda3\\envs\\robotica\\lib\\site-packages\\scipy\\integrate\\lsoda.cp36-win_amd64.pyd',
   'EXTENSION'),
  ('scipy.integrate._dop',
   'c:\\users\\pc\\miniconda3\\envs\\robotica\\lib\\site-packages\\scipy\\integrate\\_dop.cp36-win_amd64.pyd',
   'EXTENSION'),
  ('scipy.integrate.vode',
   'c:\\users\\pc\\miniconda3\\envs\\robotica\\lib\\site-packages\\scipy\\integrate\\vode.cp36-win_amd64.pyd',
   'EXTENSION'),
  ('scipy.integrate._quadpack',
   'c:\\users\\pc\\miniconda3\\envs\\robotica\\lib\\site-packages\\scipy\\integrate\\_quadpack.cp36-win_amd64.pyd',
   'EXTENSION'),
  ('scipy.integrate._odepack',
   'c:\\users\\pc\\miniconda3\\envs\\robotica\\lib\\site-packages\\scipy\\integrate\\_odepack.cp36-win_amd64.pyd',
   'EXTENSION'),
  ('scipy.special._comb',
   'c:\\users\\pc\\miniconda3\\envs\\robotica\\lib\\site-packages\\scipy\\special\\_comb.cp36-win_amd64.pyd',
   'EXTENSION'),
  ('scipy.special.specfun',
   'c:\\users\\pc\\miniconda3\\envs\\robotica\\lib\\site-packages\\scipy\\special\\specfun.cp36-win_amd64.pyd',
   'EXTENSION'),
  ('scipy.special._ufuncs',
   'c:\\users\\pc\\miniconda3\\envs\\robotica\\lib\\site-packages\\scipy\\special\\_ufuncs.cp36-win_amd64.pyd',
   'EXTENSION'),
  ('scipy.special._ufuncs_cxx',
   'c:\\users\\pc\\miniconda3\\envs\\robotica\\lib\\site-packages\\scipy\\special\\_ufuncs_cxx.cp36-win_amd64.pyd',
   'EXTENSION'),
  ('scipy.linalg.cython_lapack',
   'c:\\users\\pc\\miniconda3\\envs\\robotica\\lib\\site-packages\\scipy\\linalg\\cython_lapack.cp36-win_amd64.pyd',
   'EXTENSION'),
  ('scipy.linalg.cython_blas',
   'c:\\users\\pc\\miniconda3\\envs\\robotica\\lib\\site-packages\\scipy\\linalg\\cython_blas.cp36-win_amd64.pyd',
   'EXTENSION'),
  ('scipy.linalg._decomp_update',
   'c:\\users\\pc\\miniconda3\\envs\\robotica\\lib\\site-packages\\scipy\\linalg\\_decomp_update.cp36-win_amd64.pyd',
   'EXTENSION'),
  ('scipy.spatial._hausdorff',
   'c:\\users\\pc\\miniconda3\\envs\\robotica\\lib\\site-packages\\scipy\\spatial\\_hausdorff.cp36-win_amd64.pyd',
   'EXTENSION'),
  ('scipy.spatial._distance_wrap',
   'c:\\users\\pc\\miniconda3\\envs\\robotica\\lib\\site-packages\\scipy\\spatial\\_distance_wrap.cp36-win_amd64.pyd',
   'EXTENSION'),
  ('scipy.spatial._voronoi',
   'c:\\users\\pc\\miniconda3\\envs\\robotica\\lib\\site-packages\\scipy\\spatial\\_voronoi.cp36-win_amd64.pyd',
   'EXTENSION'),
  ('scipy.spatial.qhull',
   'c:\\users\\pc\\miniconda3\\envs\\robotica\\lib\\site-packages\\scipy\\spatial\\qhull.cp36-win_amd64.pyd',
   'EXTENSION'),
  ('scipy.spatial.ckdtree',
   'c:\\users\\pc\\miniconda3\\envs\\robotica\\lib\\site-packages\\scipy\\spatial\\ckdtree.cp36-win_amd64.pyd',
   'EXTENSION'),
  ('PyQt5.QtGui',
   'c:\\users\\pc\\miniconda3\\envs\\robotica\\lib\\site-packages\\PyQt5\\QtGui.pyd',
   'EXTENSION'),
  ('PyQt5.sip',
   'c:\\users\\pc\\miniconda3\\envs\\robotica\\lib\\site-packages\\PyQt5\\sip.cp36-win_amd64.pyd',
   'EXTENSION'),
  ('PySide2.QtNetwork',
   'c:\\users\\pc\\miniconda3\\envs\\robotica\\lib\\site-packages\\PySide2\\QtNetwork.pyd',
   'EXTENSION'),
  ('shiboken2.shiboken2',
   'c:\\users\\pc\\miniconda3\\envs\\robotica\\lib\\site-packages\\shiboken2\\shiboken2.pyd',
   'EXTENSION'),
  ('PySide2.QtCore',
   'c:\\users\\pc\\miniconda3\\envs\\robotica\\lib\\site-packages\\PySide2\\QtCore.pyd',
   'EXTENSION'),
  ('PyQt5.QtWidgets',
   'c:\\users\\pc\\miniconda3\\envs\\robotica\\lib\\site-packages\\PyQt5\\QtWidgets.pyd',
   'EXTENSION'),
  ('PyQt5.QtCore',
   'c:\\users\\pc\\miniconda3\\envs\\robotica\\lib\\site-packages\\PyQt5\\QtCore.pyd',
   'EXTENSION'),
  ('Qt5Widgets.dll',
   'c:\\users\\pc\\miniconda3\\envs\\robotica\\lib\\site-packages\\PySide2\\Qt5Widgets.dll',
   'BINARY'),
  ('Qt5Core.dll',
   'c:\\users\\pc\\miniconda3\\envs\\robotica\\lib\\site-packages\\PySide2\\Qt5Core.dll',
   'BINARY'),
  ('Qt5Gui.dll',
   'c:\\users\\pc\\miniconda3\\envs\\robotica\\lib\\site-packages\\PySide2\\Qt5Gui.dll',
   'BINARY'),
  ('VCRUNTIME140_1.dll',
   'c:\\users\\pc\\miniconda3\\envs\\robotica\\VCRUNTIME140_1.dll',
   'BINARY'),
  ('api-ms-win-crt-utility-l1-1-0.dll',
   'c:\\users\\pc\\miniconda3\\envs\\robotica\\api-ms-win-crt-utility-l1-1-0.dll',
   'BINARY'),
  ('Qt5Quick.dll',
   'c:\\users\\pc\\miniconda3\\envs\\robotica\\lib\\site-packages\\PySide2\\Qt5Quick.dll',
   'BINARY'),
  ('Qt5WebSockets.dll',
   'c:\\users\\pc\\miniconda3\\envs\\robotica\\lib\\site-packages\\PySide2\\Qt5WebSockets.dll',
   'BINARY'),
  ('Qt5Network.dll',
   'c:\\users\\pc\\miniconda3\\envs\\robotica\\lib\\site-packages\\PySide2\\Qt5Network.dll',
   'BINARY'),
  ('Qt5DBus.dll',
   'c:\\users\\pc\\miniconda3\\envs\\robotica\\lib\\site-packages\\PySide2\\Qt5DBus.dll',
   'BINARY'),
  ('Qt5Svg.dll',
   'c:\\users\\pc\\miniconda3\\envs\\robotica\\lib\\site-packages\\PySide2\\Qt5Svg.dll',
   'BINARY'),
  ('api-ms-win-crt-multibyte-l1-1-0.dll',
   'c:\\users\\pc\\miniconda3\\envs\\robotica\\api-ms-win-crt-multibyte-l1-1-0.dll',
   'BINARY'),
  ('python3.dll',
   'c:\\users\\pc\\miniconda3\\envs\\robotica\\python3.dll',
   'BINARY'),
  ('pyside2.abi3.dll',
   'c:\\users\\pc\\miniconda3\\envs\\robotica\\lib\\site-packages\\PySide2\\pyside2.abi3.dll',
   'BINARY'),
  ('shiboken2.abi3.dll',
   'c:\\users\\pc\\miniconda3\\envs\\robotica\\lib\\site-packages\\shiboken2\\shiboken2.abi3.dll',
   'BINARY'),
  ('MSVCP140_1.dll',
   'c:\\users\\pc\\miniconda3\\envs\\robotica\\lib\\site-packages\\PySide2\\MSVCP140_1.dll',
   'BINARY'),
  ('Qt5Qml.dll',
   'c:\\users\\pc\\miniconda3\\envs\\robotica\\lib\\site-packages\\PySide2\\Qt5Qml.dll',
   'BINARY'),
  ('Qt5QmlModels.dll',
   'c:\\users\\pc\\miniconda3\\envs\\robotica\\lib\\site-packages\\PySide2\\Qt5QmlModels.dll',
   'BINARY'),
  ('base_library.zip',
   'C:\\Users\\PC\\Desktop\\ROBOTO\\build\\main\\base_library.zip',
   'DATA'),
  ('PySide2\\translations\\qtbase_en.qm',
   'C:\\users\\pc\\miniconda3\\envs\\robotica\\lib\\site-packages\\PySide2\\translations\\qtbase_en.qm',
   'DATA'),
  ('PyQt5\\Qt\\translations\\qtbase_uk.qm',
   'C:\\users\\pc\\miniconda3\\envs\\robotica\\lib\\site-packages\\PyQt5\\Qt\\translations\\qtbase_uk.qm',
   'DATA'),
  ('PyQt5\\Qt\\translations\\qtbase_tr.qm',
   'C:\\users\\pc\\miniconda3\\envs\\robotica\\lib\\site-packages\\PyQt5\\Qt\\translations\\qtbase_tr.qm',
   'DATA'),
  ('Include\\pyconfig.h',
   'c:\\users\\pc\\miniconda3\\envs\\robotica\\Include\\pyconfig.h',
   'DATA'),
  ('PySide2\\translations\\qtbase_bg.qm',
   'C:\\users\\pc\\miniconda3\\envs\\robotica\\lib\\site-packages\\PySide2\\translations\\qtbase_bg.qm',
   'DATA'),
  ('PyQt5\\Qt\\translations\\qtbase_ca.qm',
   'C:\\users\\pc\\miniconda3\\envs\\robotica\\lib\\site-packages\\PyQt5\\Qt\\translations\\qtbase_ca.qm',
   'DATA'),
  ('PyQt5\\Qt\\translations\\qtbase_lv.qm',
   'C:\\users\\pc\\miniconda3\\envs\\robotica\\lib\\site-packages\\PyQt5\\Qt\\translations\\qtbase_lv.qm',
   'DATA'),
  ('PySide2\\translations\\qtbase_da.qm',
   'C:\\users\\pc\\miniconda3\\envs\\robotica\\lib\\site-packages\\PySide2\\translations\\qtbase_da.qm',
   'DATA'),
  ('PyQt5\\Qt\\translations\\qtbase_he.qm',
   'C:\\users\\pc\\miniconda3\\envs\\robotica\\lib\\site-packages\\PyQt5\\Qt\\translations\\qtbase_he.qm',
   'DATA'),
  ('PyQt5\\Qt\\translations\\qtbase_hu.qm',
   'C:\\users\\pc\\miniconda3\\envs\\robotica\\lib\\site-packages\\PyQt5\\Qt\\translations\\qtbase_hu.qm',
   'DATA'),
  ('PyQt5\\Qt\\translations\\qtbase_de.qm',
   'C:\\users\\pc\\miniconda3\\envs\\robotica\\lib\\site-packages\\PyQt5\\Qt\\translations\\qtbase_de.qm',
   'DATA'),
  ('PyQt5\\Qt\\translations\\qtbase_pl.qm',
   'C:\\users\\pc\\miniconda3\\envs\\robotica\\lib\\site-packages\\PyQt5\\Qt\\translations\\qtbase_pl.qm',
   'DATA'),
  ('PySide2\\translations\\qtbase_fr.qm',
   'C:\\users\\pc\\miniconda3\\envs\\robotica\\lib\\site-packages\\PySide2\\translations\\qtbase_fr.qm',
   'DATA'),
  ('PySide2\\translations\\qtbase_ca.qm',
   'C:\\users\\pc\\miniconda3\\envs\\robotica\\lib\\site-packages\\PySide2\\translations\\qtbase_ca.qm',
   'DATA'),
  ('PySide2\\translations\\qtbase_es.qm',
   'C:\\users\\pc\\miniconda3\\envs\\robotica\\lib\\site-packages\\PySide2\\translations\\qtbase_es.qm',
   'DATA'),
  ('PySide2\\translations\\qtbase_pl.qm',
   'C:\\users\\pc\\miniconda3\\envs\\robotica\\lib\\site-packages\\PySide2\\translations\\qtbase_pl.qm',
   'DATA'),
  ('PyQt5\\Qt\\translations\\qtbase_en.qm',
   'C:\\users\\pc\\miniconda3\\envs\\robotica\\lib\\site-packages\\PyQt5\\Qt\\translations\\qtbase_en.qm',
   'DATA'),
  ('PyQt5\\Qt\\translations\\qtbase_ja.qm',
   'C:\\users\\pc\\miniconda3\\envs\\robotica\\lib\\site-packages\\PyQt5\\Qt\\translations\\qtbase_ja.qm',
   'DATA'),
  ('PySide2\\translations\\qtbase_tr.qm',
   'C:\\users\\pc\\miniconda3\\envs\\robotica\\lib\\site-packages\\PySide2\\translations\\qtbase_tr.qm',
   'DATA'),
  ('PyQt5\\Qt\\translations\\qtbase_cs.qm',
   'C:\\users\\pc\\miniconda3\\envs\\robotica\\lib\\site-packages\\PyQt5\\Qt\\translations\\qtbase_cs.qm',
   'DATA'),
  ('PySide2\\translations\\qtbase_cs.qm',
   'C:\\users\\pc\\miniconda3\\envs\\robotica\\lib\\site-packages\\PySide2\\translations\\qtbase_cs.qm',
   'DATA'),
  ('PySide2\\translations\\qtbase_ar.qm',
   'C:\\users\\pc\\miniconda3\\envs\\robotica\\lib\\site-packages\\PySide2\\translations\\qtbase_ar.qm',
   'DATA'),
  ('PyQt5\\Qt\\translations\\qtbase_sk.qm',
   'C:\\users\\pc\\miniconda3\\envs\\robotica\\lib\\site-packages\\PyQt5\\Qt\\translations\\qtbase_sk.qm',
   'DATA'),
  ('PySide2\\translations\\qtbase_ru.qm',
   'C:\\users\\pc\\miniconda3\\envs\\robotica\\lib\\site-packages\\PySide2\\translations\\qtbase_ru.qm',
   'DATA'),
  ('PyQt5\\Qt\\translations\\qtbase_ar.qm',
   'C:\\users\\pc\\miniconda3\\envs\\robotica\\lib\\site-packages\\PyQt5\\Qt\\translations\\qtbase_ar.qm',
   'DATA'),
  ('PySide2\\translations\\qtbase_he.qm',
   'C:\\users\\pc\\miniconda3\\envs\\robotica\\lib\\site-packages\\PySide2\\translations\\qtbase_he.qm',
   'DATA'),
  ('PySide2\\qt.conf',
   'C:\\users\\pc\\miniconda3\\envs\\robotica\\lib\\site-packages\\PySide2\\qt.conf',
   'DATA'),
  ('PyQt5\\Qt\\translations\\qtbase_bg.qm',
   'C:\\users\\pc\\miniconda3\\envs\\robotica\\lib\\site-packages\\PyQt5\\Qt\\translations\\qtbase_bg.qm',
   'DATA'),
  ('PySide2\\translations\\qtbase_sk.qm',
   'C:\\users\\pc\\miniconda3\\envs\\robotica\\lib\\site-packages\\PySide2\\translations\\qtbase_sk.qm',
   'DATA'),
  ('PySide2\\translations\\qtbase_de.qm',
   'C:\\users\\pc\\miniconda3\\envs\\robotica\\lib\\site-packages\\PySide2\\translations\\qtbase_de.qm',
   'DATA'),
  ('PySide2\\translations\\qtbase_ja.qm',
   'C:\\users\\pc\\miniconda3\\envs\\robotica\\lib\\site-packages\\PySide2\\translations\\qtbase_ja.qm',
   'DATA'),
  ('PySide2\\translations\\qtbase_uk.qm',
   'C:\\users\\pc\\miniconda3\\envs\\robotica\\lib\\site-packages\\PySide2\\translations\\qtbase_uk.qm',
   'DATA'),
  ('PyQt5\\Qt\\translations\\qtbase_da.qm',
   'C:\\users\\pc\\miniconda3\\envs\\robotica\\lib\\site-packages\\PyQt5\\Qt\\translations\\qtbase_da.qm',
   'DATA'),
  ('PyQt5\\Qt\\translations\\qtbase_fr.qm',
   'C:\\users\\pc\\miniconda3\\envs\\robotica\\lib\\site-packages\\PyQt5\\Qt\\translations\\qtbase_fr.qm',
   'DATA'),
  ('PyQt5\\Qt\\translations\\qtbase_ru.qm',
   'C:\\users\\pc\\miniconda3\\envs\\robotica\\lib\\site-packages\\PyQt5\\Qt\\translations\\qtbase_ru.qm',
   'DATA'),
  ('PyQt5\\Qt\\translations\\qtbase_zh_TW.qm',
   'C:\\users\\pc\\miniconda3\\envs\\robotica\\lib\\site-packages\\PyQt5\\Qt\\translations\\qtbase_zh_TW.qm',
   'DATA'),
  ('PyQt5\\Qt\\translations\\qtbase_es.qm',
   'C:\\users\\pc\\miniconda3\\envs\\robotica\\lib\\site-packages\\PyQt5\\Qt\\translations\\qtbase_es.qm',
   'DATA'),
  ('PyQt5\\Qt\\translations\\qtbase_gd.qm',
   'C:\\users\\pc\\miniconda3\\envs\\robotica\\lib\\site-packages\\PyQt5\\Qt\\translations\\qtbase_gd.qm',
   'DATA'),
  ('PySide2\\translations\\qtbase_gd.qm',
   'C:\\users\\pc\\miniconda3\\envs\\robotica\\lib\\site-packages\\PySide2\\translations\\qtbase_gd.qm',
   'DATA'),
  ('PySide2\\translations\\qtbase_it.qm',
   'C:\\users\\pc\\miniconda3\\envs\\robotica\\lib\\site-packages\\PySide2\\translations\\qtbase_it.qm',
   'DATA'),
  ('PySide2\\translations\\qtbase_hu.qm',
   'C:\\users\\pc\\miniconda3\\envs\\robotica\\lib\\site-packages\\PySide2\\translations\\qtbase_hu.qm',
   'DATA'),
  ('PySide2\\translations\\qtbase_fi.qm',
   'C:\\users\\pc\\miniconda3\\envs\\robotica\\lib\\site-packages\\PySide2\\translations\\qtbase_fi.qm',
   'DATA'),
  ('PySide2\\translations\\qtbase_lv.qm',
   'C:\\users\\pc\\miniconda3\\envs\\robotica\\lib\\site-packages\\PySide2\\translations\\qtbase_lv.qm',
   'DATA'),
  ('PySide2\\translations\\qtbase_ko.qm',
   'C:\\users\\pc\\miniconda3\\envs\\robotica\\lib\\site-packages\\PySide2\\translations\\qtbase_ko.qm',
   'DATA'),
  ('PySide2\\translations\\qtbase_zh_TW.qm',
   'C:\\users\\pc\\miniconda3\\envs\\robotica\\lib\\site-packages\\PySide2\\translations\\qtbase_zh_TW.qm',
   'DATA'),
  ('PyQt5\\Qt\\translations\\qtbase_fi.qm',
   'C:\\users\\pc\\miniconda3\\envs\\robotica\\lib\\site-packages\\PyQt5\\Qt\\translations\\qtbase_fi.qm',
   'DATA'),
  ('PyQt5\\Qt\\translations\\qtbase_ko.qm',
   'C:\\users\\pc\\miniconda3\\envs\\robotica\\lib\\site-packages\\PyQt5\\Qt\\translations\\qtbase_ko.qm',
   'DATA'),
  ('PyQt5\\Qt\\translations\\qtbase_it.qm',
   'C:\\users\\pc\\miniconda3\\envs\\robotica\\lib\\site-packages\\PyQt5\\Qt\\translations\\qtbase_it.qm',
   'DATA'),
  ('main.exe.manifest',
   'C:\\Users\\PC\\Desktop\\ROBOTO\\build\\main\\main.exe.manifest',
   'BINARY'),
  ('pyi-windows-manifest-filename main.exe.manifest', '', 'OPTION')],
 False,
 False,
 False,
 [])
