('C:\\Users\\PC\\Desktop\\ROBOTO\\build\\main\\PYZ-00.pyz',
 [('os', 'c:\\users\\pc\\miniconda3\\envs\\robotica\\lib\\os.py', 'PYMODULE'),
  ('subprocess',
   'c:\\users\\pc\\miniconda3\\envs\\robotica\\lib\\subprocess.py',
   'PYMODULE'),
  ('dummy_threading',
   'c:\\users\\pc\\miniconda3\\envs\\robotica\\lib\\dummy_threading.py',
   'PYMODULE'),
  ('_dummy_thread',
   'c:\\users\\pc\\miniconda3\\envs\\robotica\\lib\\_dummy_thread.py',
   'PYMODULE'),
  ('selectors',
   'c:\\users\\pc\\miniconda3\\envs\\robotica\\lib\\selectors.py',
   'PYMODULE'),
  ('threading',
   'c:\\users\\pc\\miniconda3\\envs\\robotica\\lib\\threading.py',
   'PYMODULE'),
  ('_threading_local',
   'c:\\users\\pc\\miniconda3\\envs\\robotica\\lib\\_threading_local.py',
   'PYMODULE'),
  ('contextlib',
   'c:\\users\\pc\\miniconda3\\envs\\robotica\\lib\\contextlib.py',
   'PYMODULE'),
  ('signal',
   'c:\\users\\pc\\miniconda3\\envs\\robotica\\lib\\signal.py',
   'PYMODULE'),
  ('_strptime',
   'c:\\users\\pc\\miniconda3\\envs\\robotica\\lib\\_strptime.py',
   'PYMODULE'),
  ('datetime',
   'c:\\users\\pc\\miniconda3\\envs\\robotica\\lib\\datetime.py',
   'PYMODULE'),
  ('calendar',
   'c:\\users\\pc\\miniconda3\\envs\\robotica\\lib\\calendar.py',
   'PYMODULE'),
  ('argparse',
   'c:\\users\\pc\\miniconda3\\envs\\robotica\\lib\\argparse.py',
   'PYMODULE'),
  ('gettext',
   'c:\\users\\pc\\miniconda3\\envs\\robotica\\lib\\gettext.py',
   'PYMODULE'),
  ('struct',
   'c:\\users\\pc\\miniconda3\\envs\\robotica\\lib\\struct.py',
   'PYMODULE'),
  ('textwrap',
   'c:\\users\\pc\\miniconda3\\envs\\robotica\\lib\\textwrap.py',
   'PYMODULE'),
  ('copy',
   'c:\\users\\pc\\miniconda3\\envs\\robotica\\lib\\copy.py',
   'PYMODULE'),
  ('ntpath',
   'c:\\users\\pc\\miniconda3\\envs\\robotica\\lib\\ntpath.py',
   'PYMODULE'),
  ('string',
   'c:\\users\\pc\\miniconda3\\envs\\robotica\\lib\\string.py',
   'PYMODULE'),
  ('genericpath',
   'c:\\users\\pc\\miniconda3\\envs\\robotica\\lib\\genericpath.py',
   'PYMODULE'),
  ('posixpath',
   'c:\\users\\pc\\miniconda3\\envs\\robotica\\lib\\posixpath.py',
   'PYMODULE'),
  ('stat',
   'c:\\users\\pc\\miniconda3\\envs\\robotica\\lib\\stat.py',
   'PYMODULE'),
  ('multiprocessing.popen_spawn_posix',
   'c:\\users\\pc\\miniconda3\\envs\\robotica\\lib\\multiprocessing\\popen_spawn_posix.py',
   'PYMODULE'),
  ('multiprocessing.semaphore_tracker',
   'c:\\users\\pc\\miniconda3\\envs\\robotica\\lib\\multiprocessing\\semaphore_tracker.py',
   'PYMODULE'),
  ('multiprocessing.util',
   'c:\\users\\pc\\miniconda3\\envs\\robotica\\lib\\multiprocessing\\util.py',
   'PYMODULE'),
  ('tempfile',
   'c:\\users\\pc\\miniconda3\\envs\\robotica\\lib\\tempfile.py',
   'PYMODULE'),
  ('random',
   'c:\\users\\pc\\miniconda3\\envs\\robotica\\lib\\random.py',
   'PYMODULE'),
  ('bisect',
   'c:\\users\\pc\\miniconda3\\envs\\robotica\\lib\\bisect.py',
   'PYMODULE'),
  ('hashlib',
   'c:\\users\\pc\\miniconda3\\envs\\robotica\\lib\\hashlib.py',
   'PYMODULE'),
  ('shutil',
   'c:\\users\\pc\\miniconda3\\envs\\robotica\\lib\\shutil.py',
   'PYMODULE'),
  ('zipfile',
   'c:\\users\\pc\\miniconda3\\envs\\robotica\\lib\\zipfile.py',
   'PYMODULE'),
  ('py_compile',
   'c:\\users\\pc\\miniconda3\\envs\\robotica\\lib\\py_compile.py',
   'PYMODULE'),
  ('importlib.machinery',
   'c:\\users\\pc\\miniconda3\\envs\\robotica\\lib\\importlib\\machinery.py',
   'PYMODULE'),
  ('importlib',
   'c:\\users\\pc\\miniconda3\\envs\\robotica\\lib\\importlib\\__init__.py',
   'PYMODULE'),
  ('importlib.abc',
   'c:\\users\\pc\\miniconda3\\envs\\robotica\\lib\\importlib\\abc.py',
   'PYMODULE'),
  ('importlib._bootstrap',
   'c:\\users\\pc\\miniconda3\\envs\\robotica\\lib\\importlib\\_bootstrap.py',
   'PYMODULE'),
  ('importlib._bootstrap_external',
   'c:\\users\\pc\\miniconda3\\envs\\robotica\\lib\\importlib\\_bootstrap_external.py',
   'PYMODULE'),
  ('tokenize',
   'c:\\users\\pc\\miniconda3\\envs\\robotica\\lib\\tokenize.py',
   'PYMODULE'),
  ('token',
   'c:\\users\\pc\\miniconda3\\envs\\robotica\\lib\\token.py',
   'PYMODULE'),
  ('importlib.util',
   'c:\\users\\pc\\miniconda3\\envs\\robotica\\lib\\importlib\\util.py',
   'PYMODULE'),
  ('tarfile',
   'c:\\users\\pc\\miniconda3\\envs\\robotica\\lib\\tarfile.py',
   'PYMODULE'),
  ('gzip',
   'c:\\users\\pc\\miniconda3\\envs\\robotica\\lib\\gzip.py',
   'PYMODULE'),
  ('_compression',
   'c:\\users\\pc\\miniconda3\\envs\\robotica\\lib\\_compression.py',
   'PYMODULE'),
  ('lzma',
   'c:\\users\\pc\\miniconda3\\envs\\robotica\\lib\\lzma.py',
   'PYMODULE'),
  ('bz2', 'c:\\users\\pc\\miniconda3\\envs\\robotica\\lib\\bz2.py', 'PYMODULE'),
  ('fnmatch',
   'c:\\users\\pc\\miniconda3\\envs\\robotica\\lib\\fnmatch.py',
   'PYMODULE'),
  ('logging',
   'c:\\users\\pc\\miniconda3\\envs\\robotica\\lib\\logging\\__init__.py',
   'PYMODULE'),
  ('multiprocessing.process',
   'c:\\users\\pc\\miniconda3\\envs\\robotica\\lib\\multiprocessing\\process.py',
   'PYMODULE'),
  ('multiprocessing.context',
   'c:\\users\\pc\\miniconda3\\envs\\robotica\\lib\\multiprocessing\\context.py',
   'PYMODULE'),
  ('multiprocessing.popen_forkserver',
   'c:\\users\\pc\\miniconda3\\envs\\robotica\\lib\\multiprocessing\\popen_forkserver.py',
   'PYMODULE'),
  ('multiprocessing.forkserver',
   'c:\\users\\pc\\miniconda3\\envs\\robotica\\lib\\multiprocessing\\forkserver.py',
   'PYMODULE'),
  ('socket',
   'c:\\users\\pc\\miniconda3\\envs\\robotica\\lib\\socket.py',
   'PYMODULE'),
  ('multiprocessing.sharedctypes',
   'c:\\users\\pc\\miniconda3\\envs\\robotica\\lib\\multiprocessing\\sharedctypes.py',
   'PYMODULE'),
  ('multiprocessing.heap',
   'c:\\users\\pc\\miniconda3\\envs\\robotica\\lib\\multiprocessing\\heap.py',
   'PYMODULE'),
  ('ctypes',
   'c:\\users\\pc\\miniconda3\\envs\\robotica\\lib\\ctypes\\__init__.py',
   'PYMODULE'),
  ('ctypes._endian',
   'c:\\users\\pc\\miniconda3\\envs\\robotica\\lib\\ctypes\\_endian.py',
   'PYMODULE'),
  ('multiprocessing.pool',
   'c:\\users\\pc\\miniconda3\\envs\\robotica\\lib\\multiprocessing\\pool.py',
   'PYMODULE'),
  ('multiprocessing.dummy',
   'c:\\users\\pc\\miniconda3\\envs\\robotica\\lib\\multiprocessing\\dummy\\__init__.py',
   'PYMODULE'),
  ('multiprocessing.dummy.connection',
   'c:\\users\\pc\\miniconda3\\envs\\robotica\\lib\\multiprocessing\\dummy\\connection.py',
   'PYMODULE'),
  ('queue',
   'c:\\users\\pc\\miniconda3\\envs\\robotica\\lib\\queue.py',
   'PYMODULE'),
  ('multiprocessing.queues',
   'c:\\users\\pc\\miniconda3\\envs\\robotica\\lib\\multiprocessing\\queues.py',
   'PYMODULE'),
  ('multiprocessing.synchronize',
   'c:\\users\\pc\\miniconda3\\envs\\robotica\\lib\\multiprocessing\\synchronize.py',
   'PYMODULE'),
  ('multiprocessing.connection',
   'c:\\users\\pc\\miniconda3\\envs\\robotica\\lib\\multiprocessing\\connection.py',
   'PYMODULE'),
  ('multiprocessing.resource_sharer',
   'c:\\users\\pc\\miniconda3\\envs\\robotica\\lib\\multiprocessing\\resource_sharer.py',
   'PYMODULE'),
  ('xmlrpc.client',
   'c:\\users\\pc\\miniconda3\\envs\\robotica\\lib\\xmlrpc\\client.py',
   'PYMODULE'),
  ('xmlrpc',
   'c:\\users\\pc\\miniconda3\\envs\\robotica\\lib\\xmlrpc\\__init__.py',
   'PYMODULE'),
  ('xml.parsers.expat',
   'c:\\users\\pc\\miniconda3\\envs\\robotica\\lib\\xml\\parsers\\expat.py',
   'PYMODULE'),
  ('xml.parsers',
   'c:\\users\\pc\\miniconda3\\envs\\robotica\\lib\\xml\\parsers\\__init__.py',
   'PYMODULE'),
  ('xml',
   'c:\\users\\pc\\miniconda3\\envs\\robotica\\lib\\xml\\__init__.py',
   'PYMODULE'),
  ('xml.sax.expatreader',
   'c:\\users\\pc\\miniconda3\\envs\\robotica\\lib\\xml\\sax\\expatreader.py',
   'PYMODULE'),
  ('xml.sax.saxutils',
   'c:\\users\\pc\\miniconda3\\envs\\robotica\\lib\\xml\\sax\\saxutils.py',
   'PYMODULE'),
  ('urllib.request',
   'c:\\users\\pc\\miniconda3\\envs\\robotica\\lib\\urllib\\request.py',
   'PYMODULE'),
  ('getpass',
   'c:\\users\\pc\\miniconda3\\envs\\robotica\\lib\\getpass.py',
   'PYMODULE'),
  ('nturl2path',
   'c:\\users\\pc\\miniconda3\\envs\\robotica\\lib\\nturl2path.py',
   'PYMODULE'),
  ('ftplib',
   'c:\\users\\pc\\miniconda3\\envs\\robotica\\lib\\ftplib.py',
   'PYMODULE'),
  ('netrc',
   'c:\\users\\pc\\miniconda3\\envs\\robotica\\lib\\netrc.py',
   'PYMODULE'),
  ('shlex',
   'c:\\users\\pc\\miniconda3\\envs\\robotica\\lib\\shlex.py',
   'PYMODULE'),
  ('mimetypes',
   'c:\\users\\pc\\miniconda3\\envs\\robotica\\lib\\mimetypes.py',
   'PYMODULE'),
  ('getopt',
   'c:\\users\\pc\\miniconda3\\envs\\robotica\\lib\\getopt.py',
   'PYMODULE'),
  ('email.utils',
   'c:\\users\\pc\\miniconda3\\envs\\robotica\\lib\\email\\utils.py',
   'PYMODULE'),
  ('email.charset',
   'c:\\users\\pc\\miniconda3\\envs\\robotica\\lib\\email\\charset.py',
   'PYMODULE'),
  ('email.encoders',
   'c:\\users\\pc\\miniconda3\\envs\\robotica\\lib\\email\\encoders.py',
   'PYMODULE'),
  ('quopri',
   'c:\\users\\pc\\miniconda3\\envs\\robotica\\lib\\quopri.py',
   'PYMODULE'),
  ('email.errors',
   'c:\\users\\pc\\miniconda3\\envs\\robotica\\lib\\email\\errors.py',
   'PYMODULE'),
  ('email.quoprimime',
   'c:\\users\\pc\\miniconda3\\envs\\robotica\\lib\\email\\quoprimime.py',
   'PYMODULE'),
  ('email.base64mime',
   'c:\\users\\pc\\miniconda3\\envs\\robotica\\lib\\email\\base64mime.py',
   'PYMODULE'),
  ('email._parseaddr',
   'c:\\users\\pc\\miniconda3\\envs\\robotica\\lib\\email\\_parseaddr.py',
   'PYMODULE'),
  ('http.cookiejar',
   'c:\\users\\pc\\miniconda3\\envs\\robotica\\lib\\http\\cookiejar.py',
   'PYMODULE'),
  ('http',
   'c:\\users\\pc\\miniconda3\\envs\\robotica\\lib\\http\\__init__.py',
   'PYMODULE'),
  ('urllib',
   'c:\\users\\pc\\miniconda3\\envs\\robotica\\lib\\urllib\\__init__.py',
   'PYMODULE'),
  ('ssl', 'c:\\users\\pc\\miniconda3\\envs\\robotica\\lib\\ssl.py', 'PYMODULE'),
  ('ipaddress',
   'c:\\users\\pc\\miniconda3\\envs\\robotica\\lib\\ipaddress.py',
   'PYMODULE'),
  ('urllib.response',
   'c:\\users\\pc\\miniconda3\\envs\\robotica\\lib\\urllib\\response.py',
   'PYMODULE'),
  ('urllib.error',
   'c:\\users\\pc\\miniconda3\\envs\\robotica\\lib\\urllib\\error.py',
   'PYMODULE'),
  ('email',
   'c:\\users\\pc\\miniconda3\\envs\\robotica\\lib\\email\\__init__.py',
   'PYMODULE'),
  ('email.parser',
   'c:\\users\\pc\\miniconda3\\envs\\robotica\\lib\\email\\parser.py',
   'PYMODULE'),
  ('email._policybase',
   'c:\\users\\pc\\miniconda3\\envs\\robotica\\lib\\email\\_policybase.py',
   'PYMODULE'),
  ('email.feedparser',
   'c:\\users\\pc\\miniconda3\\envs\\robotica\\lib\\email\\feedparser.py',
   'PYMODULE'),
  ('email.message',
   'c:\\users\\pc\\miniconda3\\envs\\robotica\\lib\\email\\message.py',
   'PYMODULE'),
  ('email.policy',
   'c:\\users\\pc\\miniconda3\\envs\\robotica\\lib\\email\\policy.py',
   'PYMODULE'),
  ('email.contentmanager',
   'c:\\users\\pc\\miniconda3\\envs\\robotica\\lib\\email\\contentmanager.py',
   'PYMODULE'),
  ('email.headerregistry',
   'c:\\users\\pc\\miniconda3\\envs\\robotica\\lib\\email\\headerregistry.py',
   'PYMODULE'),
  ('email.iterators',
   'c:\\users\\pc\\miniconda3\\envs\\robotica\\lib\\email\\iterators.py',
   'PYMODULE'),
  ('email.generator',
   'c:\\users\\pc\\miniconda3\\envs\\robotica\\lib\\email\\generator.py',
   'PYMODULE'),
  ('email._encoded_words',
   'c:\\users\\pc\\miniconda3\\envs\\robotica\\lib\\email\\_encoded_words.py',
   'PYMODULE'),
  ('uu', 'c:\\users\\pc\\miniconda3\\envs\\robotica\\lib\\uu.py', 'PYMODULE'),
  ('optparse',
   'c:\\users\\pc\\miniconda3\\envs\\robotica\\lib\\optparse.py',
   'PYMODULE'),
  ('email._header_value_parser',
   'c:\\users\\pc\\miniconda3\\envs\\robotica\\lib\\email\\_header_value_parser.py',
   'PYMODULE'),
  ('email.header',
   'c:\\users\\pc\\miniconda3\\envs\\robotica\\lib\\email\\header.py',
   'PYMODULE'),
  ('xml.sax',
   'c:\\users\\pc\\miniconda3\\envs\\robotica\\lib\\xml\\sax\\__init__.py',
   'PYMODULE'),
  ('xml.sax.handler',
   'c:\\users\\pc\\miniconda3\\envs\\robotica\\lib\\xml\\sax\\handler.py',
   'PYMODULE'),
  ('xml.sax._exceptions',
   'c:\\users\\pc\\miniconda3\\envs\\robotica\\lib\\xml\\sax\\_exceptions.py',
   'PYMODULE'),
  ('xml.sax.xmlreader',
   'c:\\users\\pc\\miniconda3\\envs\\robotica\\lib\\xml\\sax\\xmlreader.py',
   'PYMODULE'),
  ('urllib.parse',
   'c:\\users\\pc\\miniconda3\\envs\\robotica\\lib\\urllib\\parse.py',
   'PYMODULE'),
  ('http.client',
   'c:\\users\\pc\\miniconda3\\envs\\robotica\\lib\\http\\client.py',
   'PYMODULE'),
  ('decimal',
   'c:\\users\\pc\\miniconda3\\envs\\robotica\\lib\\decimal.py',
   'PYMODULE'),
  ('_pydecimal',
   'c:\\users\\pc\\miniconda3\\envs\\robotica\\lib\\_pydecimal.py',
   'PYMODULE'),
  ('numbers',
   'c:\\users\\pc\\miniconda3\\envs\\robotica\\lib\\numbers.py',
   'PYMODULE'),
  ('base64',
   'c:\\users\\pc\\miniconda3\\envs\\robotica\\lib\\base64.py',
   'PYMODULE'),
  ('hmac',
   'c:\\users\\pc\\miniconda3\\envs\\robotica\\lib\\hmac.py',
   'PYMODULE'),
  ('multiprocessing.managers',
   'c:\\users\\pc\\miniconda3\\envs\\robotica\\lib\\multiprocessing\\managers.py',
   'PYMODULE'),
  ('multiprocessing.reduction',
   'c:\\users\\pc\\miniconda3\\envs\\robotica\\lib\\multiprocessing\\reduction.py',
   'PYMODULE'),
  ('pickle',
   'c:\\users\\pc\\miniconda3\\envs\\robotica\\lib\\pickle.py',
   'PYMODULE'),
  ('pprint',
   'c:\\users\\pc\\miniconda3\\envs\\robotica\\lib\\pprint.py',
   'PYMODULE'),
  ('doctest',
   'c:\\users\\pc\\miniconda3\\envs\\robotica\\lib\\doctest.py',
   'PYMODULE'),
  ('unittest',
   'c:\\users\\pc\\miniconda3\\envs\\robotica\\lib\\unittest\\__init__.py',
   'PYMODULE'),
  ('unittest.signals',
   'c:\\users\\pc\\miniconda3\\envs\\robotica\\lib\\unittest\\signals.py',
   'PYMODULE'),
  ('unittest.main',
   'c:\\users\\pc\\miniconda3\\envs\\robotica\\lib\\unittest\\main.py',
   'PYMODULE'),
  ('unittest.runner',
   'c:\\users\\pc\\miniconda3\\envs\\robotica\\lib\\unittest\\runner.py',
   'PYMODULE'),
  ('unittest.loader',
   'c:\\users\\pc\\miniconda3\\envs\\robotica\\lib\\unittest\\loader.py',
   'PYMODULE'),
  ('unittest.suite',
   'c:\\users\\pc\\miniconda3\\envs\\robotica\\lib\\unittest\\suite.py',
   'PYMODULE'),
  ('unittest.case',
   'c:\\users\\pc\\miniconda3\\envs\\robotica\\lib\\unittest\\case.py',
   'PYMODULE'),
  ('unittest.result',
   'c:\\users\\pc\\miniconda3\\envs\\robotica\\lib\\unittest\\result.py',
   'PYMODULE'),
  ('unittest.util',
   'c:\\users\\pc\\miniconda3\\envs\\robotica\\lib\\unittest\\util.py',
   'PYMODULE'),
  ('pdb', 'c:\\users\\pc\\miniconda3\\envs\\robotica\\lib\\pdb.py', 'PYMODULE'),
  ('pydoc',
   'c:\\users\\pc\\miniconda3\\envs\\robotica\\lib\\pydoc.py',
   'PYMODULE'),
  ('webbrowser',
   'c:\\users\\pc\\miniconda3\\envs\\robotica\\lib\\webbrowser.py',
   'PYMODULE'),
  ('http.server',
   'c:\\users\\pc\\miniconda3\\envs\\robotica\\lib\\http\\server.py',
   'PYMODULE'),
  ('socketserver',
   'c:\\users\\pc\\miniconda3\\envs\\robotica\\lib\\socketserver.py',
   'PYMODULE'),
  ('html',
   'c:\\users\\pc\\miniconda3\\envs\\robotica\\lib\\html\\__init__.py',
   'PYMODULE'),
  ('html.entities',
   'c:\\users\\pc\\miniconda3\\envs\\robotica\\lib\\html\\entities.py',
   'PYMODULE'),
  ('pydoc_data.topics',
   'c:\\users\\pc\\miniconda3\\envs\\robotica\\lib\\pydoc_data\\topics.py',
   'PYMODULE'),
  ('pydoc_data',
   'c:\\users\\pc\\miniconda3\\envs\\robotica\\lib\\pydoc_data\\__init__.py',
   'PYMODULE'),
  ('tty', 'c:\\users\\pc\\miniconda3\\envs\\robotica\\lib\\tty.py', 'PYMODULE'),
  ('platform',
   'c:\\users\\pc\\miniconda3\\envs\\robotica\\lib\\platform.py',
   'PYMODULE'),
  ('plistlib',
   'c:\\users\\pc\\miniconda3\\envs\\robotica\\lib\\plistlib.py',
   'PYMODULE'),
  ('pkgutil',
   'c:\\users\\pc\\miniconda3\\envs\\robotica\\lib\\pkgutil.py',
   'PYMODULE'),
  ('glob',
   'c:\\users\\pc\\miniconda3\\envs\\robotica\\lib\\glob.py',
   'PYMODULE'),
  ('code',
   'c:\\users\\pc\\miniconda3\\envs\\robotica\\lib\\code.py',
   'PYMODULE'),
  ('codeop',
   'c:\\users\\pc\\miniconda3\\envs\\robotica\\lib\\codeop.py',
   'PYMODULE'),
  ('dis', 'c:\\users\\pc\\miniconda3\\envs\\robotica\\lib\\dis.py', 'PYMODULE'),
  ('opcode',
   'c:\\users\\pc\\miniconda3\\envs\\robotica\\lib\\opcode.py',
   'PYMODULE'),
  ('bdb', 'c:\\users\\pc\\miniconda3\\envs\\robotica\\lib\\bdb.py', 'PYMODULE'),
  ('cmd', 'c:\\users\\pc\\miniconda3\\envs\\robotica\\lib\\cmd.py', 'PYMODULE'),
  ('inspect',
   'c:\\users\\pc\\miniconda3\\envs\\robotica\\lib\\inspect.py',
   'PYMODULE'),
  ('ast', 'c:\\users\\pc\\miniconda3\\envs\\robotica\\lib\\ast.py', 'PYMODULE'),
  ('difflib',
   'c:\\users\\pc\\miniconda3\\envs\\robotica\\lib\\difflib.py',
   'PYMODULE'),
  ('__future__',
   'c:\\users\\pc\\miniconda3\\envs\\robotica\\lib\\__future__.py',
   'PYMODULE'),
  ('_compat_pickle',
   'c:\\users\\pc\\miniconda3\\envs\\robotica\\lib\\_compat_pickle.py',
   'PYMODULE'),
  ('multiprocessing.popen_fork',
   'c:\\users\\pc\\miniconda3\\envs\\robotica\\lib\\multiprocessing\\popen_fork.py',
   'PYMODULE'),
  ('multiprocessing.popen_spawn_win32',
   'c:\\users\\pc\\miniconda3\\envs\\robotica\\lib\\multiprocessing\\popen_spawn_win32.py',
   'PYMODULE'),
  ('multiprocessing.spawn',
   'c:\\users\\pc\\miniconda3\\envs\\robotica\\lib\\multiprocessing\\spawn.py',
   'PYMODULE'),
  ('runpy',
   'c:\\users\\pc\\miniconda3\\envs\\robotica\\lib\\runpy.py',
   'PYMODULE'),
  ('multiprocessing',
   'c:\\users\\pc\\miniconda3\\envs\\robotica\\lib\\multiprocessing\\__init__.py',
   'PYMODULE'),
  ('pkg_resources',
   'c:\\users\\pc\\miniconda3\\envs\\robotica\\lib\\site-packages\\pkg_resources\\__init__.py',
   'PYMODULE'),
  ('pkg_resources._vendor.packaging.utils',
   'c:\\users\\pc\\miniconda3\\envs\\robotica\\lib\\site-packages\\pkg_resources\\_vendor\\packaging\\utils.py',
   'PYMODULE'),
  ('typing',
   'c:\\users\\pc\\miniconda3\\envs\\robotica\\lib\\typing.py',
   'PYMODULE'),
  ('pkg_resources._vendor.appdirs',
   'c:\\users\\pc\\miniconda3\\envs\\robotica\\lib\\site-packages\\pkg_resources\\_vendor\\appdirs.py',
   'PYMODULE'),
  ('pkg_resources._vendor.packaging.requirements',
   'c:\\users\\pc\\miniconda3\\envs\\robotica\\lib\\site-packages\\pkg_resources\\_vendor\\packaging\\requirements.py',
   'PYMODULE'),
  ('pkg_resources._vendor.packaging._typing',
   'c:\\users\\pc\\miniconda3\\envs\\robotica\\lib\\site-packages\\pkg_resources\\_vendor\\packaging\\_typing.py',
   'PYMODULE'),
  ('pkg_resources._vendor',
   'c:\\users\\pc\\miniconda3\\envs\\robotica\\lib\\site-packages\\pkg_resources\\_vendor\\__init__.py',
   'PYMODULE'),
  ('pkg_resources._vendor.pyparsing',
   'c:\\users\\pc\\miniconda3\\envs\\robotica\\lib\\site-packages\\pkg_resources\\_vendor\\pyparsing.py',
   'PYMODULE'),
  ('uuid',
   'c:\\users\\pc\\miniconda3\\envs\\robotica\\lib\\uuid.py',
   'PYMODULE'),
  ('ctypes.util',
   'c:\\users\\pc\\miniconda3\\envs\\robotica\\lib\\ctypes\\util.py',
   'PYMODULE'),
  ('ctypes.macholib.dyld',
   'c:\\users\\pc\\miniconda3\\envs\\robotica\\lib\\ctypes\\macholib\\dyld.py',
   'PYMODULE'),
  ('ctypes.macholib',
   'c:\\users\\pc\\miniconda3\\envs\\robotica\\lib\\ctypes\\macholib\\__init__.py',
   'PYMODULE'),
  ('ctypes.macholib.dylib',
   'c:\\users\\pc\\miniconda3\\envs\\robotica\\lib\\ctypes\\macholib\\dylib.py',
   'PYMODULE'),
  ('ctypes.macholib.framework',
   'c:\\users\\pc\\miniconda3\\envs\\robotica\\lib\\ctypes\\macholib\\framework.py',
   'PYMODULE'),
  ('pkg_resources._vendor.packaging.tags',
   'c:\\users\\pc\\miniconda3\\envs\\robotica\\lib\\site-packages\\pkg_resources\\_vendor\\packaging\\tags.py',
   'PYMODULE'),
  ('distutils.util',
   'c:\\users\\pc\\miniconda3\\envs\\robotica\\lib\\distutils\\util.py',
   'PYMODULE'),
  ('distutils.filelist',
   'c:\\users\\pc\\miniconda3\\envs\\robotica\\lib\\distutils\\filelist.py',
   'PYMODULE'),
  ('distutils.debug',
   'c:\\users\\pc\\miniconda3\\envs\\robotica\\lib\\distutils\\debug.py',
   'PYMODULE'),
  ('distutils.file_util',
   'c:\\users\\pc\\miniconda3\\envs\\robotica\\lib\\distutils\\file_util.py',
   'PYMODULE'),
  ('distutils.dir_util',
   'c:\\users\\pc\\miniconda3\\envs\\robotica\\lib\\distutils\\dir_util.py',
   'PYMODULE'),
  ('distutils.sysconfig',
   'c:\\users\\pc\\miniconda3\\envs\\robotica\\lib\\distutils\\sysconfig.py',
   'PYMODULE'),
  ('distutils.text_file',
   'c:\\users\\pc\\miniconda3\\envs\\robotica\\lib\\distutils\\text_file.py',
   'PYMODULE'),
  ('_osx_support',
   'c:\\users\\pc\\miniconda3\\envs\\robotica\\lib\\_osx_support.py',
   'PYMODULE'),
  ('distutils.log',
   'c:\\users\\pc\\miniconda3\\envs\\robotica\\lib\\distutils\\log.py',
   'PYMODULE'),
  ('distutils',
   'c:\\users\\pc\\miniconda3\\envs\\robotica\\lib\\distutils\\__init__.py',
   'PYMODULE'),
  ('distutils.archive_util',
   'c:\\users\\pc\\miniconda3\\envs\\robotica\\lib\\distutils\\archive_util.py',
   'PYMODULE'),
  ('distutils.ccompiler',
   'c:\\users\\pc\\miniconda3\\envs\\robotica\\lib\\distutils\\ccompiler.py',
   'PYMODULE'),
  ('distutils.fancy_getopt',
   'c:\\users\\pc\\miniconda3\\envs\\robotica\\lib\\distutils\\fancy_getopt.py',
   'PYMODULE'),
  ('distutils.spawn',
   'c:\\users\\pc\\miniconda3\\envs\\robotica\\lib\\distutils\\spawn.py',
   'PYMODULE'),
  ('distutils.dep_util',
   'c:\\users\\pc\\miniconda3\\envs\\robotica\\lib\\distutils\\dep_util.py',
   'PYMODULE'),
  ('distutils.errors',
   'c:\\users\\pc\\miniconda3\\envs\\robotica\\lib\\distutils\\errors.py',
   'PYMODULE'),
  ('pkg_resources._vendor.packaging.specifiers',
   'c:\\users\\pc\\miniconda3\\envs\\robotica\\lib\\site-packages\\pkg_resources\\_vendor\\packaging\\specifiers.py',
   'PYMODULE'),
  ('pkg_resources._vendor.packaging._structures',
   'c:\\users\\pc\\miniconda3\\envs\\robotica\\lib\\site-packages\\pkg_resources\\_vendor\\packaging\\_structures.py',
   'PYMODULE'),
  ('pkg_resources._vendor.packaging.version',
   'c:\\users\\pc\\miniconda3\\envs\\robotica\\lib\\site-packages\\pkg_resources\\_vendor\\packaging\\version.py',
   'PYMODULE'),
  ('pkg_resources._vendor.packaging',
   'c:\\users\\pc\\miniconda3\\envs\\robotica\\lib\\site-packages\\pkg_resources\\_vendor\\packaging\\__init__.py',
   'PYMODULE'),
  ('pkg_resources._vendor.packaging.markers',
   'c:\\users\\pc\\miniconda3\\envs\\robotica\\lib\\site-packages\\pkg_resources\\_vendor\\packaging\\markers.py',
   'PYMODULE'),
  ('pkg_resources._vendor.packaging.__about__',
   'c:\\users\\pc\\miniconda3\\envs\\robotica\\lib\\site-packages\\pkg_resources\\_vendor\\packaging\\__about__.py',
   'PYMODULE'),
  ('pkg_resources._vendor.packaging._compat',
   'c:\\users\\pc\\miniconda3\\envs\\robotica\\lib\\site-packages\\pkg_resources\\_vendor\\packaging\\_compat.py',
   'PYMODULE'),
  ('sysconfig',
   'c:\\users\\pc\\miniconda3\\envs\\robotica\\lib\\sysconfig.py',
   'PYMODULE'),
  ('pkg_resources.extern',
   'c:\\users\\pc\\miniconda3\\envs\\robotica\\lib\\site-packages\\pkg_resources\\extern\\__init__.py',
   'PYMODULE'),
  ('imp', 'c:\\users\\pc\\miniconda3\\envs\\robotica\\lib\\imp.py', 'PYMODULE'),
  ('stringprep',
   'c:\\users\\pc\\miniconda3\\envs\\robotica\\lib\\stringprep.py',
   'PYMODULE'),
  ('tracemalloc',
   'c:\\users\\pc\\miniconda3\\envs\\robotica\\lib\\tracemalloc.py',
   'PYMODULE'),
  ('second', 'C:\\Users\\PC\\Desktop\\ROBOTO\\second.py', 'PYMODULE'),
  ('directo', 'C:\\Users\\PC\\Desktop\\ROBOTO\\directo.py', 'PYMODULE'),
  ('numpy',
   'c:\\users\\pc\\miniconda3\\envs\\robotica\\lib\\site-packages\\numpy\\__init__.py',
   'PYMODULE'),
  ('numpy._pytesttester',
   'c:\\users\\pc\\miniconda3\\envs\\robotica\\lib\\site-packages\\numpy\\_pytesttester.py',
   'PYMODULE'),
  ('numpy.distutils.cpuinfo',
   'c:\\users\\pc\\miniconda3\\envs\\robotica\\lib\\site-packages\\numpy\\distutils\\cpuinfo.py',
   'PYMODULE'),
  ('numpy.distutils',
   'c:\\users\\pc\\miniconda3\\envs\\robotica\\lib\\site-packages\\numpy\\distutils\\__init__.py',
   'PYMODULE'),
  ('numpy.distutils.fcompiler',
   'c:\\users\\pc\\miniconda3\\envs\\robotica\\lib\\site-packages\\numpy\\distutils\\fcompiler\\__init__.py',
   'PYMODULE'),
  ('numpy.distutils.command.config_compiler',
   'c:\\users\\pc\\miniconda3\\envs\\robotica\\lib\\site-packages\\numpy\\distutils\\command\\config_compiler.py',
   'PYMODULE'),
  ('numpy.distutils.command',
   'c:\\users\\pc\\miniconda3\\envs\\robotica\\lib\\site-packages\\numpy\\distutils\\command\\__init__.py',
   'PYMODULE'),
  ('numpy.distutils.command.egg_info',
   'c:\\users\\pc\\miniconda3\\envs\\robotica\\lib\\site-packages\\numpy\\distutils\\command\\egg_info.py',
   'PYMODULE'),
  ('setuptools.command.egg_info',
   'c:\\users\\pc\\miniconda3\\envs\\robotica\\lib\\site-packages\\setuptools\\command\\egg_info.py',
   'PYMODULE'),
  ('setuptools.extern',
   'c:\\users\\pc\\miniconda3\\envs\\robotica\\lib\\site-packages\\setuptools\\extern\\__init__.py',
   'PYMODULE'),
  ('setuptools.glob',
   'c:\\users\\pc\\miniconda3\\envs\\robotica\\lib\\site-packages\\setuptools\\glob.py',
   'PYMODULE'),
  ('setuptools.unicode_utils',
   'c:\\users\\pc\\miniconda3\\envs\\robotica\\lib\\site-packages\\setuptools\\unicode_utils.py',
   'PYMODULE'),
  ('setuptools.command.bdist_egg',
   'c:\\users\\pc\\miniconda3\\envs\\robotica\\lib\\site-packages\\setuptools\\command\\bdist_egg.py',
   'PYMODULE'),
  ('setuptools.extension',
   'c:\\users\\pc\\miniconda3\\envs\\robotica\\lib\\site-packages\\setuptools\\extension.py',
   'PYMODULE'),
  ('setuptools.monkey',
   'c:\\users\\pc\\miniconda3\\envs\\robotica\\lib\\site-packages\\setuptools\\monkey.py',
   'PYMODULE'),
  ('distutils.extension',
   'c:\\users\\pc\\miniconda3\\envs\\robotica\\lib\\distutils\\extension.py',
   'PYMODULE'),
  ('setuptools.command',
   'c:\\users\\pc\\miniconda3\\envs\\robotica\\lib\\site-packages\\setuptools\\command\\__init__.py',
   'PYMODULE'),
  ('setuptools.command.install_scripts',
   'c:\\users\\pc\\miniconda3\\envs\\robotica\\lib\\site-packages\\setuptools\\command\\install_scripts.py',
   'PYMODULE'),
  ('setuptools.command.easy_install',
   'c:\\users\\pc\\miniconda3\\envs\\robotica\\lib\\site-packages\\setuptools\\command\\easy_install.py',
   'PYMODULE'),
  ('setuptools.wheel',
   'c:\\users\\pc\\miniconda3\\envs\\robotica\\lib\\site-packages\\setuptools\\wheel.py',
   'PYMODULE'),
  ('setuptools.package_index',
   'c:\\users\\pc\\miniconda3\\envs\\robotica\\lib\\site-packages\\setuptools\\package_index.py',
   'PYMODULE'),
  ('setuptools.ssl_support',
   'c:\\users\\pc\\miniconda3\\envs\\robotica\\lib\\site-packages\\setuptools\\ssl_support.py',
   'PYMODULE'),
  ('wincertstore',
   'c:\\users\\pc\\miniconda3\\envs\\robotica\\lib\\site-packages\\wincertstore.py',
   'PYMODULE'),
  ('ctypes.wintypes',
   'c:\\users\\pc\\miniconda3\\envs\\robotica\\lib\\ctypes\\wintypes.py',
   'PYMODULE'),
  ('setuptools.archive_util',
   'c:\\users\\pc\\miniconda3\\envs\\robotica\\lib\\site-packages\\setuptools\\archive_util.py',
   'PYMODULE'),
  ('setuptools.sandbox',
   'c:\\users\\pc\\miniconda3\\envs\\robotica\\lib\\site-packages\\setuptools\\sandbox.py',
   'PYMODULE'),
  ('configparser',
   'c:\\users\\pc\\miniconda3\\envs\\robotica\\lib\\configparser.py',
   'PYMODULE'),
  ('site',
   'c:\\users\\pc\\miniconda3\\envs\\robotica\\lib\\site-packages\\PyInstaller\\fake-modules\\site.py',
   'PYMODULE'),
  ('distutils.command.build_scripts',
   'c:\\users\\pc\\miniconda3\\envs\\robotica\\lib\\distutils\\command\\build_scripts.py',
   'PYMODULE'),
  ('distutils.command',
   'c:\\users\\pc\\miniconda3\\envs\\robotica\\lib\\distutils\\command\\__init__.py',
   'PYMODULE'),
  ('distutils.command.install',
   'c:\\users\\pc\\miniconda3\\envs\\robotica\\lib\\distutils\\command\\install.py',
   'PYMODULE'),
  ('distutils.command.install_scripts',
   'c:\\users\\pc\\miniconda3\\envs\\robotica\\lib\\distutils\\command\\install_scripts.py',
   'PYMODULE'),
  ('distutils.command.bdist',
   'c:\\users\\pc\\miniconda3\\envs\\robotica\\lib\\distutils\\command\\bdist.py',
   'PYMODULE'),
  ('setuptools.command.setopt',
   'c:\\users\\pc\\miniconda3\\envs\\robotica\\lib\\site-packages\\setuptools\\command\\setopt.py',
   'PYMODULE'),
  ('setuptools.command.sdist',
   'c:\\users\\pc\\miniconda3\\envs\\robotica\\lib\\site-packages\\setuptools\\command\\sdist.py',
   'PYMODULE'),
  ('setuptools.command.py36compat',
   'c:\\users\\pc\\miniconda3\\envs\\robotica\\lib\\site-packages\\setuptools\\command\\py36compat.py',
   'PYMODULE'),
  ('distutils.command.sdist',
   'c:\\users\\pc\\miniconda3\\envs\\robotica\\lib\\distutils\\command\\sdist.py',
   'PYMODULE'),
  ('setuptools',
   'c:\\users\\pc\\miniconda3\\envs\\robotica\\lib\\site-packages\\setuptools\\__init__.py',
   'PYMODULE'),
  ('setuptools._vendor.packaging',
   'c:\\users\\pc\\miniconda3\\envs\\robotica\\lib\\site-packages\\setuptools\\_vendor\\packaging\\__init__.py',
   'PYMODULE'),
  ('setuptools._vendor.packaging.utils',
   'c:\\users\\pc\\miniconda3\\envs\\robotica\\lib\\site-packages\\setuptools\\_vendor\\packaging\\utils.py',
   'PYMODULE'),
  ('setuptools._vendor.packaging.__about__',
   'c:\\users\\pc\\miniconda3\\envs\\robotica\\lib\\site-packages\\setuptools\\_vendor\\packaging\\__about__.py',
   'PYMODULE'),
  ('setuptools._vendor.ordered_set',
   'c:\\users\\pc\\miniconda3\\envs\\robotica\\lib\\site-packages\\setuptools\\_vendor\\ordered_set.py',
   'PYMODULE'),
  ('setuptools._vendor.packaging.version',
   'c:\\users\\pc\\miniconda3\\envs\\robotica\\lib\\site-packages\\setuptools\\_vendor\\packaging\\version.py',
   'PYMODULE'),
  ('setuptools._vendor.packaging._structures',
   'c:\\users\\pc\\miniconda3\\envs\\robotica\\lib\\site-packages\\setuptools\\_vendor\\packaging\\_structures.py',
   'PYMODULE'),
  ('setuptools._vendor.packaging.markers',
   'c:\\users\\pc\\miniconda3\\envs\\robotica\\lib\\site-packages\\setuptools\\_vendor\\packaging\\markers.py',
   'PYMODULE'),
  ('setuptools._vendor.packaging._typing',
   'c:\\users\\pc\\miniconda3\\envs\\robotica\\lib\\site-packages\\setuptools\\_vendor\\packaging\\_typing.py',
   'PYMODULE'),
  ('setuptools._vendor.packaging.tags',
   'c:\\users\\pc\\miniconda3\\envs\\robotica\\lib\\site-packages\\setuptools\\_vendor\\packaging\\tags.py',
   'PYMODULE'),
  ('setuptools._vendor.packaging.requirements',
   'c:\\users\\pc\\miniconda3\\envs\\robotica\\lib\\site-packages\\setuptools\\_vendor\\packaging\\requirements.py',
   'PYMODULE'),
  ('setuptools._vendor.packaging._compat',
   'c:\\users\\pc\\miniconda3\\envs\\robotica\\lib\\site-packages\\setuptools\\_vendor\\packaging\\_compat.py',
   'PYMODULE'),
  ('setuptools._vendor.packaging.specifiers',
   'c:\\users\\pc\\miniconda3\\envs\\robotica\\lib\\site-packages\\setuptools\\_vendor\\packaging\\specifiers.py',
   'PYMODULE'),
  ('setuptools._vendor',
   'c:\\users\\pc\\miniconda3\\envs\\robotica\\lib\\site-packages\\setuptools\\_vendor\\__init__.py',
   'PYMODULE'),
  ('setuptools._vendor.pyparsing',
   'c:\\users\\pc\\miniconda3\\envs\\robotica\\lib\\site-packages\\setuptools\\_vendor\\pyparsing.py',
   'PYMODULE'),
  ('setuptools.msvc',
   'c:\\users\\pc\\miniconda3\\envs\\robotica\\lib\\site-packages\\setuptools\\msvc.py',
   'PYMODULE'),
  ('distutils.msvc9compiler',
   'c:\\users\\pc\\miniconda3\\envs\\robotica\\lib\\distutils\\msvc9compiler.py',
   'PYMODULE'),
  ('json',
   'c:\\users\\pc\\miniconda3\\envs\\robotica\\lib\\json\\__init__.py',
   'PYMODULE'),
  ('json.encoder',
   'c:\\users\\pc\\miniconda3\\envs\\robotica\\lib\\json\\encoder.py',
   'PYMODULE'),
  ('json.decoder',
   'c:\\users\\pc\\miniconda3\\envs\\robotica\\lib\\json\\decoder.py',
   'PYMODULE'),
  ('json.scanner',
   'c:\\users\\pc\\miniconda3\\envs\\robotica\\lib\\json\\scanner.py',
   'PYMODULE'),
  ('distutils.command.build_ext',
   'c:\\users\\pc\\miniconda3\\envs\\robotica\\lib\\distutils\\command\\build_ext.py',
   'PYMODULE'),
  ('distutils._msvccompiler',
   'c:\\users\\pc\\miniconda3\\envs\\robotica\\lib\\distutils\\_msvccompiler.py',
   'PYMODULE'),
  ('concurrent.futures',
   'c:\\users\\pc\\miniconda3\\envs\\robotica\\lib\\concurrent\\futures\\__init__.py',
   'PYMODULE'),
  ('concurrent.futures.thread',
   'c:\\users\\pc\\miniconda3\\envs\\robotica\\lib\\concurrent\\futures\\thread.py',
   'PYMODULE'),
  ('concurrent.futures.process',
   'c:\\users\\pc\\miniconda3\\envs\\robotica\\lib\\concurrent\\futures\\process.py',
   'PYMODULE'),
  ('concurrent.futures._base',
   'c:\\users\\pc\\miniconda3\\envs\\robotica\\lib\\concurrent\\futures\\_base.py',
   'PYMODULE'),
  ('concurrent',
   'c:\\users\\pc\\miniconda3\\envs\\robotica\\lib\\concurrent\\__init__.py',
   'PYMODULE'),
  ('setuptools.namespaces',
   'c:\\users\\pc\\miniconda3\\envs\\robotica\\lib\\site-packages\\setuptools\\namespaces.py',
   'PYMODULE'),
  ('setuptools.depends',
   'c:\\users\\pc\\miniconda3\\envs\\robotica\\lib\\site-packages\\setuptools\\depends.py',
   'PYMODULE'),
  ('setuptools._imp',
   'c:\\users\\pc\\miniconda3\\envs\\robotica\\lib\\site-packages\\setuptools\\_imp.py',
   'PYMODULE'),
  ('setuptools.py34compat',
   'c:\\users\\pc\\miniconda3\\envs\\robotica\\lib\\site-packages\\setuptools\\py34compat.py',
   'PYMODULE'),
  ('distutils.version',
   'c:\\users\\pc\\miniconda3\\envs\\robotica\\lib\\distutils\\version.py',
   'PYMODULE'),
  ('setuptools.dist',
   'c:\\users\\pc\\miniconda3\\envs\\robotica\\lib\\site-packages\\setuptools\\dist.py',
   'PYMODULE'),
  ('setuptools.installer',
   'c:\\users\\pc\\miniconda3\\envs\\robotica\\lib\\site-packages\\setuptools\\installer.py',
   'PYMODULE'),
  ('setuptools.config',
   'c:\\users\\pc\\miniconda3\\envs\\robotica\\lib\\site-packages\\setuptools\\config.py',
   'PYMODULE'),
  ('distutils.cmd',
   'c:\\users\\pc\\miniconda3\\envs\\robotica\\lib\\distutils\\cmd.py',
   'PYMODULE'),
  ('setuptools.windows_support',
   'c:\\users\\pc\\miniconda3\\envs\\robotica\\lib\\site-packages\\setuptools\\windows_support.py',
   'PYMODULE'),
  ('setuptools.version',
   'c:\\users\\pc\\miniconda3\\envs\\robotica\\lib\\site-packages\\setuptools\\version.py',
   'PYMODULE'),
  ('setuptools._deprecation_warning',
   'c:\\users\\pc\\miniconda3\\envs\\robotica\\lib\\site-packages\\setuptools\\_deprecation_warning.py',
   'PYMODULE'),
  ('_distutils_hack.override',
   'c:\\users\\pc\\miniconda3\\envs\\robotica\\lib\\site-packages\\_distutils_hack\\override.py',
   'PYMODULE'),
  ('_distutils_hack',
   'c:\\users\\pc\\miniconda3\\envs\\robotica\\lib\\site-packages\\_distutils_hack\\__init__.py',
   'PYMODULE'),
  ('numpy.distutils.command.develop',
   'c:\\users\\pc\\miniconda3\\envs\\robotica\\lib\\site-packages\\numpy\\distutils\\command\\develop.py',
   'PYMODULE'),
  ('setuptools.command.develop',
   'c:\\users\\pc\\miniconda3\\envs\\robotica\\lib\\site-packages\\setuptools\\command\\develop.py',
   'PYMODULE'),
  ('numpy.distutils.command.install_clib',
   'c:\\users\\pc\\miniconda3\\envs\\robotica\\lib\\site-packages\\numpy\\distutils\\command\\install_clib.py',
   'PYMODULE'),
  ('numpy.distutils.command.bdist_rpm',
   'c:\\users\\pc\\miniconda3\\envs\\robotica\\lib\\site-packages\\numpy\\distutils\\command\\bdist_rpm.py',
   'PYMODULE'),
  ('distutils.command.bdist_rpm',
   'c:\\users\\pc\\miniconda3\\envs\\robotica\\lib\\distutils\\command\\bdist_rpm.py',
   'PYMODULE'),
  ('setuptools.command.bdist_rpm',
   'c:\\users\\pc\\miniconda3\\envs\\robotica\\lib\\site-packages\\setuptools\\command\\bdist_rpm.py',
   'PYMODULE'),
  ('numpy.distutils.command.install',
   'c:\\users\\pc\\miniconda3\\envs\\robotica\\lib\\site-packages\\numpy\\distutils\\command\\install.py',
   'PYMODULE'),
  ('setuptools.command.install',
   'c:\\users\\pc\\miniconda3\\envs\\robotica\\lib\\site-packages\\setuptools\\command\\install.py',
   'PYMODULE'),
  ('numpy.distutils.command.install_headers',
   'c:\\users\\pc\\miniconda3\\envs\\robotica\\lib\\site-packages\\numpy\\distutils\\command\\install_headers.py',
   'PYMODULE'),
  ('distutils.command.install_headers',
   'c:\\users\\pc\\miniconda3\\envs\\robotica\\lib\\distutils\\command\\install_headers.py',
   'PYMODULE'),
  ('numpy.distutils.command.install_data',
   'c:\\users\\pc\\miniconda3\\envs\\robotica\\lib\\site-packages\\numpy\\distutils\\command\\install_data.py',
   'PYMODULE'),
  ('distutils.command.install_data',
   'c:\\users\\pc\\miniconda3\\envs\\robotica\\lib\\distutils\\command\\install_data.py',
   'PYMODULE'),
  ('numpy.distutils.command.sdist',
   'c:\\users\\pc\\miniconda3\\envs\\robotica\\lib\\site-packages\\numpy\\distutils\\command\\sdist.py',
   'PYMODULE'),
  ('numpy.distutils.command.build_scripts',
   'c:\\users\\pc\\miniconda3\\envs\\robotica\\lib\\site-packages\\numpy\\distutils\\command\\build_scripts.py',
   'PYMODULE'),
  ('numpy.distutils.command.build_clib',
   'c:\\users\\pc\\miniconda3\\envs\\robotica\\lib\\site-packages\\numpy\\distutils\\command\\build_clib.py',
   'PYMODULE'),
  ('distutils.command.build_clib',
   'c:\\users\\pc\\miniconda3\\envs\\robotica\\lib\\distutils\\command\\build_clib.py',
   'PYMODULE'),
  ('numpy.distutils.command.build_ext',
   'c:\\users\\pc\\miniconda3\\envs\\robotica\\lib\\site-packages\\numpy\\distutils\\command\\build_ext.py',
   'PYMODULE'),
  ('numpy.distutils.system_info',
   'c:\\users\\pc\\miniconda3\\envs\\robotica\\lib\\site-packages\\numpy\\distutils\\system_info.py',
   'PYMODULE'),
  ('numpy.f2py',
   'c:\\users\\pc\\miniconda3\\envs\\robotica\\lib\\site-packages\\numpy\\f2py\\__init__.py',
   'PYMODULE'),
  ('numpy.f2py.diagnose',
   'c:\\users\\pc\\miniconda3\\envs\\robotica\\lib\\site-packages\\numpy\\f2py\\diagnose.py',
   'PYMODULE'),
  ('numpy.f2py.f2py_testing',
   'c:\\users\\pc\\miniconda3\\envs\\robotica\\lib\\site-packages\\numpy\\f2py\\f2py_testing.py',
   'PYMODULE'),
  ('numpy.f2py.f2py2e',
   'c:\\users\\pc\\miniconda3\\envs\\robotica\\lib\\site-packages\\numpy\\f2py\\f2py2e.py',
   'PYMODULE'),
  ('numpy.distutils.command.build_src',
   'c:\\users\\pc\\miniconda3\\envs\\robotica\\lib\\site-packages\\numpy\\distutils\\command\\build_src.py',
   'PYMODULE'),
  ('numpy.distutils.conv_template',
   'c:\\users\\pc\\miniconda3\\envs\\robotica\\lib\\site-packages\\numpy\\distutils\\conv_template.py',
   'PYMODULE'),
  ('numpy.distutils.from_template',
   'c:\\users\\pc\\miniconda3\\envs\\robotica\\lib\\site-packages\\numpy\\distutils\\from_template.py',
   'PYMODULE'),
  ('numpy.f2py.auxfuncs',
   'c:\\users\\pc\\miniconda3\\envs\\robotica\\lib\\site-packages\\numpy\\f2py\\auxfuncs.py',
   'PYMODULE'),
  ('numpy.f2py.f90mod_rules',
   'c:\\users\\pc\\miniconda3\\envs\\robotica\\lib\\site-packages\\numpy\\f2py\\f90mod_rules.py',
   'PYMODULE'),
  ('numpy.f2py.rules',
   'c:\\users\\pc\\miniconda3\\envs\\robotica\\lib\\site-packages\\numpy\\f2py\\rules.py',
   'PYMODULE'),
  ('numpy.f2py.use_rules',
   'c:\\users\\pc\\miniconda3\\envs\\robotica\\lib\\site-packages\\numpy\\f2py\\use_rules.py',
   'PYMODULE'),
  ('numpy.f2py.common_rules',
   'c:\\users\\pc\\miniconda3\\envs\\robotica\\lib\\site-packages\\numpy\\f2py\\common_rules.py',
   'PYMODULE'),
  ('numpy.f2py.func2subr',
   'c:\\users\\pc\\miniconda3\\envs\\robotica\\lib\\site-packages\\numpy\\f2py\\func2subr.py',
   'PYMODULE'),
  ('numpy.f2py.crackfortran',
   'c:\\users\\pc\\miniconda3\\envs\\robotica\\lib\\site-packages\\numpy\\f2py\\crackfortran.py',
   'PYMODULE'),
  ('fileinput',
   'c:\\users\\pc\\miniconda3\\envs\\robotica\\lib\\fileinput.py',
   'PYMODULE'),
  ('numpy.f2py.cb_rules',
   'c:\\users\\pc\\miniconda3\\envs\\robotica\\lib\\site-packages\\numpy\\f2py\\cb_rules.py',
   'PYMODULE'),
  ('numpy.f2py.capi_maps',
   'c:\\users\\pc\\miniconda3\\envs\\robotica\\lib\\site-packages\\numpy\\f2py\\capi_maps.py',
   'PYMODULE'),
  ('numpy.f2py.cfuncs',
   'c:\\users\\pc\\miniconda3\\envs\\robotica\\lib\\site-packages\\numpy\\f2py\\cfuncs.py',
   'PYMODULE'),
  ('numpy.f2py.__version__',
   'c:\\users\\pc\\miniconda3\\envs\\robotica\\lib\\site-packages\\numpy\\f2py\\__version__.py',
   'PYMODULE'),
  ('numpy.distutils.command.build_py',
   'c:\\users\\pc\\miniconda3\\envs\\robotica\\lib\\site-packages\\numpy\\distutils\\command\\build_py.py',
   'PYMODULE'),
  ('distutils.command.build_py',
   'c:\\users\\pc\\miniconda3\\envs\\robotica\\lib\\distutils\\command\\build_py.py',
   'PYMODULE'),
  ('numpy.distutils.command.build',
   'c:\\users\\pc\\miniconda3\\envs\\robotica\\lib\\site-packages\\numpy\\distutils\\command\\build.py',
   'PYMODULE'),
  ('distutils.command.build',
   'c:\\users\\pc\\miniconda3\\envs\\robotica\\lib\\distutils\\command\\build.py',
   'PYMODULE'),
  ('numpy.distutils.command.config',
   'c:\\users\\pc\\miniconda3\\envs\\robotica\\lib\\site-packages\\numpy\\distutils\\command\\config.py',
   'PYMODULE'),
  ('numpy.distutils.command.autodist',
   'c:\\users\\pc\\miniconda3\\envs\\robotica\\lib\\site-packages\\numpy\\distutils\\command\\autodist.py',
   'PYMODULE'),
  ('numpy.distutils.mingw32ccompiler',
   'c:\\users\\pc\\miniconda3\\envs\\robotica\\lib\\site-packages\\numpy\\distutils\\mingw32ccompiler.py',
   'PYMODULE'),
  ('distutils.msvccompiler',
   'c:\\users\\pc\\miniconda3\\envs\\robotica\\lib\\distutils\\msvccompiler.py',
   'PYMODULE'),
  ('distutils.unixccompiler',
   'c:\\users\\pc\\miniconda3\\envs\\robotica\\lib\\distutils\\unixccompiler.py',
   'PYMODULE'),
  ('distutils.cygwinccompiler',
   'c:\\users\\pc\\miniconda3\\envs\\robotica\\lib\\distutils\\cygwinccompiler.py',
   'PYMODULE'),
  ('distutils.command.config',
   'c:\\users\\pc\\miniconda3\\envs\\robotica\\lib\\distutils\\command\\config.py',
   'PYMODULE'),
  ('distutils.core',
   'c:\\users\\pc\\miniconda3\\envs\\robotica\\lib\\distutils\\core.py',
   'PYMODULE'),
  ('distutils.config',
   'c:\\users\\pc\\miniconda3\\envs\\robotica\\lib\\distutils\\config.py',
   'PYMODULE'),
  ('cgi', 'c:\\users\\pc\\miniconda3\\envs\\robotica\\lib\\cgi.py', 'PYMODULE'),
  ('distutils.dist',
   'c:\\users\\pc\\miniconda3\\envs\\robotica\\lib\\distutils\\dist.py',
   'PYMODULE'),
  ('distutils.versionpredicate',
   'c:\\users\\pc\\miniconda3\\envs\\robotica\\lib\\distutils\\versionpredicate.py',
   'PYMODULE'),
  ('numpy.distutils.core',
   'c:\\users\\pc\\miniconda3\\envs\\robotica\\lib\\site-packages\\numpy\\distutils\\core.py',
   'PYMODULE'),
  ('numpy.distutils.numpy_distribution',
   'c:\\users\\pc\\miniconda3\\envs\\robotica\\lib\\site-packages\\numpy\\distutils\\numpy_distribution.py',
   'PYMODULE'),
  ('numpy.distutils.extension',
   'c:\\users\\pc\\miniconda3\\envs\\robotica\\lib\\site-packages\\numpy\\distutils\\extension.py',
   'PYMODULE'),
  ('numpy.distutils.fcompiler.environment',
   'c:\\users\\pc\\miniconda3\\envs\\robotica\\lib\\site-packages\\numpy\\distutils\\fcompiler\\environment.py',
   'PYMODULE'),
  ('numpy.distutils.exec_command',
   'c:\\users\\pc\\miniconda3\\envs\\robotica\\lib\\site-packages\\numpy\\distutils\\exec_command.py',
   'PYMODULE'),
  ('numpy.distutils.misc_util',
   'c:\\users\\pc\\miniconda3\\envs\\robotica\\lib\\site-packages\\numpy\\distutils\\misc_util.py',
   'PYMODULE'),
  ('curses',
   'c:\\users\\pc\\miniconda3\\envs\\robotica\\lib\\curses\\__init__.py',
   'PYMODULE'),
  ('curses.has_key',
   'c:\\users\\pc\\miniconda3\\envs\\robotica\\lib\\curses\\has_key.py',
   'PYMODULE'),
  ('numpy.distutils.__config__',
   'c:\\users\\pc\\miniconda3\\envs\\robotica\\lib\\site-packages\\numpy\\distutils\\__config__.py',
   'PYMODULE'),
  ('numpy.distutils.npy_pkg_config',
   'c:\\users\\pc\\miniconda3\\envs\\robotica\\lib\\site-packages\\numpy\\distutils\\npy_pkg_config.py',
   'PYMODULE'),
  ('numpy.distutils.unixccompiler',
   'c:\\users\\pc\\miniconda3\\envs\\robotica\\lib\\site-packages\\numpy\\distutils\\unixccompiler.py',
   'PYMODULE'),
  ('numpy.distutils.ccompiler',
   'c:\\users\\pc\\miniconda3\\envs\\robotica\\lib\\site-packages\\numpy\\distutils\\ccompiler.py',
   'PYMODULE'),
  ('numpy.distutils._shell_utils',
   'c:\\users\\pc\\miniconda3\\envs\\robotica\\lib\\site-packages\\numpy\\distutils\\_shell_utils.py',
   'PYMODULE'),
  ('pipes',
   'c:\\users\\pc\\miniconda3\\envs\\robotica\\lib\\pipes.py',
   'PYMODULE'),
  ('numpy.distutils.lib2def',
   'c:\\users\\pc\\miniconda3\\envs\\robotica\\lib\\site-packages\\numpy\\distutils\\lib2def.py',
   'PYMODULE'),
  ('numpy.distutils.log',
   'c:\\users\\pc\\miniconda3\\envs\\robotica\\lib\\site-packages\\numpy\\distutils\\log.py',
   'PYMODULE'),
  ('numpy.testing',
   'c:\\users\\pc\\miniconda3\\envs\\robotica\\lib\\site-packages\\numpy\\testing\\__init__.py',
   'PYMODULE'),
  ('numpy.testing._private.nosetester',
   'c:\\users\\pc\\miniconda3\\envs\\robotica\\lib\\site-packages\\numpy\\testing\\_private\\nosetester.py',
   'PYMODULE'),
  ('scipy',
   'c:\\users\\pc\\miniconda3\\envs\\robotica\\lib\\site-packages\\scipy\\__init__.py',
   'PYMODULE'),
  ('scipy.fft',
   'c:\\users\\pc\\miniconda3\\envs\\robotica\\lib\\site-packages\\scipy\\fft\\__init__.py',
   'PYMODULE'),
  ('scipy.fft._pocketfft.helper',
   'c:\\users\\pc\\miniconda3\\envs\\robotica\\lib\\site-packages\\scipy\\fft\\_pocketfft\\helper.py',
   'PYMODULE'),
  ('scipy.fft._pocketfft',
   'c:\\users\\pc\\miniconda3\\envs\\robotica\\lib\\site-packages\\scipy\\fft\\_pocketfft\\__init__.py',
   'PYMODULE'),
  ('scipy.fft._pocketfft.realtransforms',
   'c:\\users\\pc\\miniconda3\\envs\\robotica\\lib\\site-packages\\scipy\\fft\\_pocketfft\\realtransforms.py',
   'PYMODULE'),
  ('scipy.fft._pocketfft.basic',
   'c:\\users\\pc\\miniconda3\\envs\\robotica\\lib\\site-packages\\scipy\\fft\\_pocketfft\\basic.py',
   'PYMODULE'),
  ('scipy.fft._backend',
   'c:\\users\\pc\\miniconda3\\envs\\robotica\\lib\\site-packages\\scipy\\fft\\_backend.py',
   'PYMODULE'),
  ('scipy._lib.uarray',
   'c:\\users\\pc\\miniconda3\\envs\\robotica\\lib\\site-packages\\scipy\\_lib\\uarray.py',
   'PYMODULE'),
  ('scipy._lib._uarray',
   'c:\\users\\pc\\miniconda3\\envs\\robotica\\lib\\site-packages\\scipy\\_lib\\_uarray\\__init__.py',
   'PYMODULE'),
  ('scipy._lib._uarray._backend',
   'c:\\users\\pc\\miniconda3\\envs\\robotica\\lib\\site-packages\\scipy\\_lib\\_uarray\\_backend.py',
   'PYMODULE'),
  ('scipy.fft._helper',
   'c:\\users\\pc\\miniconda3\\envs\\robotica\\lib\\site-packages\\scipy\\fft\\_helper.py',
   'PYMODULE'),
  ('scipy.fft._realtransforms',
   'c:\\users\\pc\\miniconda3\\envs\\robotica\\lib\\site-packages\\scipy\\fft\\_realtransforms.py',
   'PYMODULE'),
  ('scipy.fft._basic',
   'c:\\users\\pc\\miniconda3\\envs\\robotica\\lib\\site-packages\\scipy\\fft\\_basic.py',
   'PYMODULE'),
  ('scipy._lib._testutils',
   'c:\\users\\pc\\miniconda3\\envs\\robotica\\lib\\site-packages\\scipy\\_lib\\_testutils.py',
   'PYMODULE'),
  ('scipy._lib._ccallback',
   'c:\\users\\pc\\miniconda3\\envs\\robotica\\lib\\site-packages\\scipy\\_lib\\_ccallback.py',
   'PYMODULE'),
  ('scipy._lib._pep440',
   'c:\\users\\pc\\miniconda3\\envs\\robotica\\lib\\site-packages\\scipy\\_lib\\_pep440.py',
   'PYMODULE'),
  ('scipy._lib',
   'c:\\users\\pc\\miniconda3\\envs\\robotica\\lib\\site-packages\\scipy\\_lib\\__init__.py',
   'PYMODULE'),
  ('scipy._distributor_init',
   'c:\\users\\pc\\miniconda3\\envs\\robotica\\lib\\site-packages\\scipy\\_distributor_init.py',
   'PYMODULE'),
  ('scipy.version',
   'c:\\users\\pc\\miniconda3\\envs\\robotica\\lib\\site-packages\\scipy\\version.py',
   'PYMODULE'),
  ('scipy.__config__',
   'c:\\users\\pc\\miniconda3\\envs\\robotica\\lib\\site-packages\\scipy\\__config__.py',
   'PYMODULE'),
  ('numpy.lib.scimath',
   'c:\\users\\pc\\miniconda3\\envs\\robotica\\lib\\site-packages\\numpy\\lib\\scimath.py',
   'PYMODULE'),
  ('numpy.lib.type_check',
   'c:\\users\\pc\\miniconda3\\envs\\robotica\\lib\\site-packages\\numpy\\lib\\type_check.py',
   'PYMODULE'),
  ('numpy.core.getlimits',
   'c:\\users\\pc\\miniconda3\\envs\\robotica\\lib\\site-packages\\numpy\\core\\getlimits.py',
   'PYMODULE'),
  ('numpy.core.umath',
   'c:\\users\\pc\\miniconda3\\envs\\robotica\\lib\\site-packages\\numpy\\core\\umath.py',
   'PYMODULE'),
  ('numpy.core.machar',
   'c:\\users\\pc\\miniconda3\\envs\\robotica\\lib\\site-packages\\numpy\\core\\machar.py',
   'PYMODULE'),
  ('numpy.core._ufunc_config',
   'c:\\users\\pc\\miniconda3\\envs\\robotica\\lib\\site-packages\\numpy\\core\\_ufunc_config.py',
   'PYMODULE'),
  ('numpy.core.fromnumeric',
   'c:\\users\\pc\\miniconda3\\envs\\robotica\\lib\\site-packages\\numpy\\core\\fromnumeric.py',
   'PYMODULE'),
  ('numpy.core._methods',
   'c:\\users\\pc\\miniconda3\\envs\\robotica\\lib\\site-packages\\numpy\\core\\_methods.py',
   'PYMODULE'),
  ('numpy.core._exceptions',
   'c:\\users\\pc\\miniconda3\\envs\\robotica\\lib\\site-packages\\numpy\\core\\_exceptions.py',
   'PYMODULE'),
  ('numpy.core._asarray',
   'c:\\users\\pc\\miniconda3\\envs\\robotica\\lib\\site-packages\\numpy\\core\\_asarray.py',
   'PYMODULE'),
  ('numpy.core.multiarray',
   'c:\\users\\pc\\miniconda3\\envs\\robotica\\lib\\site-packages\\numpy\\core\\multiarray.py',
   'PYMODULE'),
  ('numpy.lib.ufunclike',
   'c:\\users\\pc\\miniconda3\\envs\\robotica\\lib\\site-packages\\numpy\\lib\\ufunclike.py',
   'PYMODULE'),
  ('numpy.core.overrides',
   'c:\\users\\pc\\miniconda3\\envs\\robotica\\lib\\site-packages\\numpy\\core\\overrides.py',
   'PYMODULE'),
  ('numpy.compat._inspect',
   'c:\\users\\pc\\miniconda3\\envs\\robotica\\lib\\site-packages\\numpy\\compat\\_inspect.py',
   'PYMODULE'),
  ('numpy.core.numerictypes',
   'c:\\users\\pc\\miniconda3\\envs\\robotica\\lib\\site-packages\\numpy\\core\\numerictypes.py',
   'PYMODULE'),
  ('numpy.core._dtype',
   'c:\\users\\pc\\miniconda3\\envs\\robotica\\lib\\site-packages\\numpy\\core\\_dtype.py',
   'PYMODULE'),
  ('numpy.core._type_aliases',
   'c:\\users\\pc\\miniconda3\\envs\\robotica\\lib\\site-packages\\numpy\\core\\_type_aliases.py',
   'PYMODULE'),
  ('numpy.core._string_helpers',
   'c:\\users\\pc\\miniconda3\\envs\\robotica\\lib\\site-packages\\numpy\\core\\_string_helpers.py',
   'PYMODULE'),
  ('numpy.core.numeric',
   'c:\\users\\pc\\miniconda3\\envs\\robotica\\lib\\site-packages\\numpy\\core\\numeric.py',
   'PYMODULE'),
  ('numpy.core.arrayprint',
   'c:\\users\\pc\\miniconda3\\envs\\robotica\\lib\\site-packages\\numpy\\core\\arrayprint.py',
   'PYMODULE'),
  ('numpy.core.shape_base',
   'c:\\users\\pc\\miniconda3\\envs\\robotica\\lib\\site-packages\\numpy\\core\\shape_base.py',
   'PYMODULE'),
  ('scipy._lib.deprecation',
   'c:\\users\\pc\\miniconda3\\envs\\robotica\\lib\\site-packages\\scipy\\_lib\\deprecation.py',
   'PYMODULE'),
  ('numpy.testing._private.noseclasses',
   'c:\\users\\pc\\miniconda3\\envs\\robotica\\lib\\site-packages\\numpy\\testing\\_private\\noseclasses.py',
   'PYMODULE'),
  ('numpy.testing._private.decorators',
   'c:\\users\\pc\\miniconda3\\envs\\robotica\\lib\\site-packages\\numpy\\testing\\_private\\decorators.py',
   'PYMODULE'),
  ('numpy.testing._private.parameterized',
   'c:\\users\\pc\\miniconda3\\envs\\robotica\\lib\\site-packages\\numpy\\testing\\_private\\parameterized.py',
   'PYMODULE'),
  ('numpy.testing._private',
   'c:\\users\\pc\\miniconda3\\envs\\robotica\\lib\\site-packages\\numpy\\testing\\_private\\__init__.py',
   'PYMODULE'),
  ('numpy.testing._private.utils',
   'c:\\users\\pc\\miniconda3\\envs\\robotica\\lib\\site-packages\\numpy\\testing\\_private\\utils.py',
   'PYMODULE'),
  ('numpy.matrixlib',
   'c:\\users\\pc\\miniconda3\\envs\\robotica\\lib\\site-packages\\numpy\\matrixlib\\__init__.py',
   'PYMODULE'),
  ('numpy.matrixlib.defmatrix',
   'c:\\users\\pc\\miniconda3\\envs\\robotica\\lib\\site-packages\\numpy\\matrixlib\\defmatrix.py',
   'PYMODULE'),
  ('numpy.dual',
   'c:\\users\\pc\\miniconda3\\envs\\robotica\\lib\\site-packages\\numpy\\dual.py',
   'PYMODULE'),
  ('numpy.ma',
   'c:\\users\\pc\\miniconda3\\envs\\robotica\\lib\\site-packages\\numpy\\ma\\__init__.py',
   'PYMODULE'),
  ('numpy.ma.extras',
   'c:\\users\\pc\\miniconda3\\envs\\robotica\\lib\\site-packages\\numpy\\ma\\extras.py',
   'PYMODULE'),
  ('numpy.lib.index_tricks',
   'c:\\users\\pc\\miniconda3\\envs\\robotica\\lib\\site-packages\\numpy\\lib\\index_tricks.py',
   'PYMODULE'),
  ('numpy.lib.stride_tricks',
   'c:\\users\\pc\\miniconda3\\envs\\robotica\\lib\\site-packages\\numpy\\lib\\stride_tricks.py',
   'PYMODULE'),
  ('numpy.lib.function_base',
   'c:\\users\\pc\\miniconda3\\envs\\robotica\\lib\\site-packages\\numpy\\lib\\function_base.py',
   'PYMODULE'),
  ('numpy.lib.histograms',
   'c:\\users\\pc\\miniconda3\\envs\\robotica\\lib\\site-packages\\numpy\\lib\\histograms.py',
   'PYMODULE'),
  ('numpy.lib.twodim_base',
   'c:\\users\\pc\\miniconda3\\envs\\robotica\\lib\\site-packages\\numpy\\lib\\twodim_base.py',
   'PYMODULE'),
  ('numpy.core.function_base',
   'c:\\users\\pc\\miniconda3\\envs\\robotica\\lib\\site-packages\\numpy\\core\\function_base.py',
   'PYMODULE'),
  ('numpy.ma.core',
   'c:\\users\\pc\\miniconda3\\envs\\robotica\\lib\\site-packages\\numpy\\ma\\core.py',
   'PYMODULE'),
  ('numpy.core._internal',
   'c:\\users\\pc\\miniconda3\\envs\\robotica\\lib\\site-packages\\numpy\\core\\_internal.py',
   'PYMODULE'),
  ('numpy.ctypeslib',
   'c:\\users\\pc\\miniconda3\\envs\\robotica\\lib\\site-packages\\numpy\\ctypeslib.py',
   'PYMODULE'),
  ('numpy.random',
   'c:\\users\\pc\\miniconda3\\envs\\robotica\\lib\\site-packages\\numpy\\random\\__init__.py',
   'PYMODULE'),
  ('numpy.random._pickle',
   'c:\\users\\pc\\miniconda3\\envs\\robotica\\lib\\site-packages\\numpy\\random\\_pickle.py',
   'PYMODULE'),
  ('numpy.polynomial',
   'c:\\users\\pc\\miniconda3\\envs\\robotica\\lib\\site-packages\\numpy\\polynomial\\__init__.py',
   'PYMODULE'),
  ('numpy.polynomial.laguerre',
   'c:\\users\\pc\\miniconda3\\envs\\robotica\\lib\\site-packages\\numpy\\polynomial\\laguerre.py',
   'PYMODULE'),
  ('numpy.polynomial._polybase',
   'c:\\users\\pc\\miniconda3\\envs\\robotica\\lib\\site-packages\\numpy\\polynomial\\_polybase.py',
   'PYMODULE'),
  ('numpy.polynomial.hermite_e',
   'c:\\users\\pc\\miniconda3\\envs\\robotica\\lib\\site-packages\\numpy\\polynomial\\hermite_e.py',
   'PYMODULE'),
  ('numpy.polynomial.hermite',
   'c:\\users\\pc\\miniconda3\\envs\\robotica\\lib\\site-packages\\numpy\\polynomial\\hermite.py',
   'PYMODULE'),
  ('numpy.polynomial.legendre',
   'c:\\users\\pc\\miniconda3\\envs\\robotica\\lib\\site-packages\\numpy\\polynomial\\legendre.py',
   'PYMODULE'),
  ('numpy.polynomial.chebyshev',
   'c:\\users\\pc\\miniconda3\\envs\\robotica\\lib\\site-packages\\numpy\\polynomial\\chebyshev.py',
   'PYMODULE'),
  ('numpy.polynomial.polynomial',
   'c:\\users\\pc\\miniconda3\\envs\\robotica\\lib\\site-packages\\numpy\\polynomial\\polynomial.py',
   'PYMODULE'),
  ('numpy.polynomial.polyutils',
   'c:\\users\\pc\\miniconda3\\envs\\robotica\\lib\\site-packages\\numpy\\polynomial\\polyutils.py',
   'PYMODULE'),
  ('numpy.fft',
   'c:\\users\\pc\\miniconda3\\envs\\robotica\\lib\\site-packages\\numpy\\fft\\__init__.py',
   'PYMODULE'),
  ('numpy.fft.helper',
   'c:\\users\\pc\\miniconda3\\envs\\robotica\\lib\\site-packages\\numpy\\fft\\helper.py',
   'PYMODULE'),
  ('numpy.fft._pocketfft',
   'c:\\users\\pc\\miniconda3\\envs\\robotica\\lib\\site-packages\\numpy\\fft\\_pocketfft.py',
   'PYMODULE'),
  ('numpy.linalg',
   'c:\\users\\pc\\miniconda3\\envs\\robotica\\lib\\site-packages\\numpy\\linalg\\__init__.py',
   'PYMODULE'),
  ('numpy.linalg.linalg',
   'c:\\users\\pc\\miniconda3\\envs\\robotica\\lib\\site-packages\\numpy\\linalg\\linalg.py',
   'PYMODULE'),
  ('numpy.lib',
   'c:\\users\\pc\\miniconda3\\envs\\robotica\\lib\\site-packages\\numpy\\lib\\__init__.py',
   'PYMODULE'),
  ('numpy.lib._version',
   'c:\\users\\pc\\miniconda3\\envs\\robotica\\lib\\site-packages\\numpy\\lib\\_version.py',
   'PYMODULE'),
  ('numpy.lib.arraypad',
   'c:\\users\\pc\\miniconda3\\envs\\robotica\\lib\\site-packages\\numpy\\lib\\arraypad.py',
   'PYMODULE'),
  ('numpy.lib.arrayterator',
   'c:\\users\\pc\\miniconda3\\envs\\robotica\\lib\\site-packages\\numpy\\lib\\arrayterator.py',
   'PYMODULE'),
  ('numpy.lib.financial',
   'c:\\users\\pc\\miniconda3\\envs\\robotica\\lib\\site-packages\\numpy\\lib\\financial.py',
   'PYMODULE'),
  ('numpy.lib.npyio',
   'c:\\users\\pc\\miniconda3\\envs\\robotica\\lib\\site-packages\\numpy\\lib\\npyio.py',
   'PYMODULE'),
  ('numpy.ma.mrecords',
   'c:\\users\\pc\\miniconda3\\envs\\robotica\\lib\\site-packages\\numpy\\ma\\mrecords.py',
   'PYMODULE'),
  ('numpy.core.records',
   'c:\\users\\pc\\miniconda3\\envs\\robotica\\lib\\site-packages\\numpy\\core\\records.py',
   'PYMODULE'),
  ('numpy.lib._iotools',
   'c:\\users\\pc\\miniconda3\\envs\\robotica\\lib\\site-packages\\numpy\\lib\\_iotools.py',
   'PYMODULE'),
  ('numpy.lib._datasource',
   'c:\\users\\pc\\miniconda3\\envs\\robotica\\lib\\site-packages\\numpy\\lib\\_datasource.py',
   'PYMODULE'),
  ('numpy.lib.format',
   'c:\\users\\pc\\miniconda3\\envs\\robotica\\lib\\site-packages\\numpy\\lib\\format.py',
   'PYMODULE'),
  ('numpy.lib.arraysetops',
   'c:\\users\\pc\\miniconda3\\envs\\robotica\\lib\\site-packages\\numpy\\lib\\arraysetops.py',
   'PYMODULE'),
  ('numpy.lib.utils',
   'c:\\users\\pc\\miniconda3\\envs\\robotica\\lib\\site-packages\\numpy\\lib\\utils.py',
   'PYMODULE'),
  ('numpy.lib.polynomial',
   'c:\\users\\pc\\miniconda3\\envs\\robotica\\lib\\site-packages\\numpy\\lib\\polynomial.py',
   'PYMODULE'),
  ('numpy.lib.shape_base',
   'c:\\users\\pc\\miniconda3\\envs\\robotica\\lib\\site-packages\\numpy\\lib\\shape_base.py',
   'PYMODULE'),
  ('numpy.lib.nanfunctions',
   'c:\\users\\pc\\miniconda3\\envs\\robotica\\lib\\site-packages\\numpy\\lib\\nanfunctions.py',
   'PYMODULE'),
  ('numpy.lib.mixins',
   'c:\\users\\pc\\miniconda3\\envs\\robotica\\lib\\site-packages\\numpy\\lib\\mixins.py',
   'PYMODULE'),
  ('numpy.compat',
   'c:\\users\\pc\\miniconda3\\envs\\robotica\\lib\\site-packages\\numpy\\compat\\__init__.py',
   'PYMODULE'),
  ('numpy.compat.py3k',
   'c:\\users\\pc\\miniconda3\\envs\\robotica\\lib\\site-packages\\numpy\\compat\\py3k.py',
   'PYMODULE'),
  ('pathlib',
   'c:\\users\\pc\\miniconda3\\envs\\robotica\\lib\\pathlib.py',
   'PYMODULE'),
  ('numpy.core',
   'c:\\users\\pc\\miniconda3\\envs\\robotica\\lib\\site-packages\\numpy\\core\\__init__.py',
   'PYMODULE'),
  ('numpy.core._dtype_ctypes',
   'c:\\users\\pc\\miniconda3\\envs\\robotica\\lib\\site-packages\\numpy\\core\\_dtype_ctypes.py',
   'PYMODULE'),
  ('numpy.core._add_newdocs',
   'c:\\users\\pc\\miniconda3\\envs\\robotica\\lib\\site-packages\\numpy\\core\\_add_newdocs.py',
   'PYMODULE'),
  ('numpy.core.einsumfunc',
   'c:\\users\\pc\\miniconda3\\envs\\robotica\\lib\\site-packages\\numpy\\core\\einsumfunc.py',
   'PYMODULE'),
  ('numpy.core.memmap',
   'c:\\users\\pc\\miniconda3\\envs\\robotica\\lib\\site-packages\\numpy\\core\\memmap.py',
   'PYMODULE'),
  ('numpy.core.defchararray',
   'c:\\users\\pc\\miniconda3\\envs\\robotica\\lib\\site-packages\\numpy\\core\\defchararray.py',
   'PYMODULE'),
  ('numpy._distributor_init',
   'c:\\users\\pc\\miniconda3\\envs\\robotica\\lib\\site-packages\\numpy\\_distributor_init.py',
   'PYMODULE'),
  ('numpy.version',
   'c:\\users\\pc\\miniconda3\\envs\\robotica\\lib\\site-packages\\numpy\\version.py',
   'PYMODULE'),
  ('numpy.__config__',
   'c:\\users\\pc\\miniconda3\\envs\\robotica\\lib\\site-packages\\numpy\\__config__.py',
   'PYMODULE'),
  ('numpy._globals',
   'c:\\users\\pc\\miniconda3\\envs\\robotica\\lib\\site-packages\\numpy\\_globals.py',
   'PYMODULE'),
  ('scipy.spatial.transform',
   'c:\\users\\pc\\miniconda3\\envs\\robotica\\lib\\site-packages\\scipy\\spatial\\transform\\__init__.py',
   'PYMODULE'),
  ('scipy.spatial',
   'c:\\users\\pc\\miniconda3\\envs\\robotica\\lib\\site-packages\\scipy\\spatial\\__init__.py',
   'PYMODULE'),
  ('scipy.spatial.distance',
   'c:\\users\\pc\\miniconda3\\envs\\robotica\\lib\\site-packages\\scipy\\spatial\\distance.py',
   'PYMODULE'),
  ('scipy.special',
   'c:\\users\\pc\\miniconda3\\envs\\robotica\\lib\\site-packages\\scipy\\special\\__init__.py',
   'PYMODULE'),
  ('scipy.special._spherical_bessel',
   'c:\\users\\pc\\miniconda3\\envs\\robotica\\lib\\site-packages\\scipy\\special\\_spherical_bessel.py',
   'PYMODULE'),
  ('scipy.special._lambertw',
   'c:\\users\\pc\\miniconda3\\envs\\robotica\\lib\\site-packages\\scipy\\special\\_lambertw.py',
   'PYMODULE'),
  ('scipy.special._ellip_harm',
   'c:\\users\\pc\\miniconda3\\envs\\robotica\\lib\\site-packages\\scipy\\special\\_ellip_harm.py',
   'PYMODULE'),
  ('scipy.integrate',
   'c:\\users\\pc\\miniconda3\\envs\\robotica\\lib\\site-packages\\scipy\\integrate\\__init__.py',
   'PYMODULE'),
  ('scipy.integrate._quad_vec',
   'c:\\users\\pc\\miniconda3\\envs\\robotica\\lib\\site-packages\\scipy\\integrate\\_quad_vec.py',
   'PYMODULE'),
  ('scipy.integrate._ivp',
   'c:\\users\\pc\\miniconda3\\envs\\robotica\\lib\\site-packages\\scipy\\integrate\\_ivp\\__init__.py',
   'PYMODULE'),
  ('scipy.integrate._ivp.base',
   'c:\\users\\pc\\miniconda3\\envs\\robotica\\lib\\site-packages\\scipy\\integrate\\_ivp\\base.py',
   'PYMODULE'),
  ('scipy.integrate._ivp.common',
   'c:\\users\\pc\\miniconda3\\envs\\robotica\\lib\\site-packages\\scipy\\integrate\\_ivp\\common.py',
   'PYMODULE'),
  ('scipy.sparse',
   'c:\\users\\pc\\miniconda3\\envs\\robotica\\lib\\site-packages\\scipy\\sparse\\__init__.py',
   'PYMODULE'),
  ('scipy.sparse.csgraph',
   'c:\\users\\pc\\miniconda3\\envs\\robotica\\lib\\site-packages\\scipy\\sparse\\csgraph\\__init__.py',
   'PYMODULE'),
  ('scipy.sparse.csgraph._validation',
   'c:\\users\\pc\\miniconda3\\envs\\robotica\\lib\\site-packages\\scipy\\sparse\\csgraph\\_validation.py',
   'PYMODULE'),
  ('scipy.sparse.csgraph._laplacian',
   'c:\\users\\pc\\miniconda3\\envs\\robotica\\lib\\site-packages\\scipy\\sparse\\csgraph\\_laplacian.py',
   'PYMODULE'),
  ('scipy.sparse._matrix_io',
   'c:\\users\\pc\\miniconda3\\envs\\robotica\\lib\\site-packages\\scipy\\sparse\\_matrix_io.py',
   'PYMODULE'),
  ('scipy.sparse.extract',
   'c:\\users\\pc\\miniconda3\\envs\\robotica\\lib\\site-packages\\scipy\\sparse\\extract.py',
   'PYMODULE'),
  ('scipy.sparse.construct',
   'c:\\users\\pc\\miniconda3\\envs\\robotica\\lib\\site-packages\\scipy\\sparse\\construct.py',
   'PYMODULE'),
  ('scipy.sparse.sputils',
   'c:\\users\\pc\\miniconda3\\envs\\robotica\\lib\\site-packages\\scipy\\sparse\\sputils.py',
   'PYMODULE'),
  ('scipy.sparse.bsr',
   'c:\\users\\pc\\miniconda3\\envs\\robotica\\lib\\site-packages\\scipy\\sparse\\bsr.py',
   'PYMODULE'),
  ('scipy.sparse.compressed',
   'c:\\users\\pc\\miniconda3\\envs\\robotica\\lib\\site-packages\\scipy\\sparse\\compressed.py',
   'PYMODULE'),
  ('scipy.sparse._index',
   'c:\\users\\pc\\miniconda3\\envs\\robotica\\lib\\site-packages\\scipy\\sparse\\_index.py',
   'PYMODULE'),
  ('scipy.sparse.data',
   'c:\\users\\pc\\miniconda3\\envs\\robotica\\lib\\site-packages\\scipy\\sparse\\data.py',
   'PYMODULE'),
  ('scipy.sparse.dia',
   'c:\\users\\pc\\miniconda3\\envs\\robotica\\lib\\site-packages\\scipy\\sparse\\dia.py',
   'PYMODULE'),
  ('scipy.sparse.coo',
   'c:\\users\\pc\\miniconda3\\envs\\robotica\\lib\\site-packages\\scipy\\sparse\\coo.py',
   'PYMODULE'),
  ('scipy.sparse.dok',
   'c:\\users\\pc\\miniconda3\\envs\\robotica\\lib\\site-packages\\scipy\\sparse\\dok.py',
   'PYMODULE'),
  ('scipy.sparse.lil',
   'c:\\users\\pc\\miniconda3\\envs\\robotica\\lib\\site-packages\\scipy\\sparse\\lil.py',
   'PYMODULE'),
  ('scipy.sparse.csc',
   'c:\\users\\pc\\miniconda3\\envs\\robotica\\lib\\site-packages\\scipy\\sparse\\csc.py',
   'PYMODULE'),
  ('scipy.sparse.csr',
   'c:\\users\\pc\\miniconda3\\envs\\robotica\\lib\\site-packages\\scipy\\sparse\\csr.py',
   'PYMODULE'),
  ('scipy.sparse.spfuncs',
   'c:\\users\\pc\\miniconda3\\envs\\robotica\\lib\\site-packages\\scipy\\sparse\\spfuncs.py',
   'PYMODULE'),
  ('scipy.sparse.base',
   'c:\\users\\pc\\miniconda3\\envs\\robotica\\lib\\site-packages\\scipy\\sparse\\base.py',
   'PYMODULE'),
  ('scipy.integrate._ivp.lsoda',
   'c:\\users\\pc\\miniconda3\\envs\\robotica\\lib\\site-packages\\scipy\\integrate\\_ivp\\lsoda.py',
   'PYMODULE'),
  ('scipy.integrate._ivp.bdf',
   'c:\\users\\pc\\miniconda3\\envs\\robotica\\lib\\site-packages\\scipy\\integrate\\_ivp\\bdf.py',
   'PYMODULE'),
  ('scipy.optimize._numdiff',
   'c:\\users\\pc\\miniconda3\\envs\\robotica\\lib\\site-packages\\scipy\\optimize\\_numdiff.py',
   'PYMODULE'),
  ('scipy.optimize',
   'c:\\users\\pc\\miniconda3\\envs\\robotica\\lib\\site-packages\\scipy\\optimize\\__init__.py',
   'PYMODULE'),
  ('scipy.optimize._dual_annealing',
   'c:\\users\\pc\\miniconda3\\envs\\robotica\\lib\\site-packages\\scipy\\optimize\\_dual_annealing.py',
   'PYMODULE'),
  ('scipy.optimize._shgo',
   'c:\\users\\pc\\miniconda3\\envs\\robotica\\lib\\site-packages\\scipy\\optimize\\_shgo.py',
   'PYMODULE'),
  ('scipy.optimize._shgo_lib.triangulation',
   'c:\\users\\pc\\miniconda3\\envs\\robotica\\lib\\site-packages\\scipy\\optimize\\_shgo_lib\\triangulation.py',
   'PYMODULE'),
  ('scipy.optimize._shgo_lib.sobol_seq',
   'c:\\users\\pc\\miniconda3\\envs\\robotica\\lib\\site-packages\\scipy\\optimize\\_shgo_lib\\sobol_seq.py',
   'PYMODULE'),
  ('scipy.optimize._shgo_lib',
   'c:\\users\\pc\\miniconda3\\envs\\robotica\\lib\\site-packages\\scipy\\optimize\\_shgo_lib\\__init__.py',
   'PYMODULE'),
  ('scipy.optimize._hessian_update_strategy',
   'c:\\users\\pc\\miniconda3\\envs\\robotica\\lib\\site-packages\\scipy\\optimize\\_hessian_update_strategy.py',
   'PYMODULE'),
  ('scipy.optimize._constraints',
   'c:\\users\\pc\\miniconda3\\envs\\robotica\\lib\\site-packages\\scipy\\optimize\\_constraints.py',
   'PYMODULE'),
  ('scipy.optimize._differentiable_functions',
   'c:\\users\\pc\\miniconda3\\envs\\robotica\\lib\\site-packages\\scipy\\optimize\\_differentiable_functions.py',
   'PYMODULE'),
  ('scipy.optimize._lsq.lsq_linear',
   'c:\\users\\pc\\miniconda3\\envs\\robotica\\lib\\site-packages\\scipy\\optimize\\_lsq\\lsq_linear.py',
   'PYMODULE'),
  ('scipy.optimize._lsq.bvls',
   'c:\\users\\pc\\miniconda3\\envs\\robotica\\lib\\site-packages\\scipy\\optimize\\_lsq\\bvls.py',
   'PYMODULE'),
  ('scipy.optimize._lsq.trf_linear',
   'c:\\users\\pc\\miniconda3\\envs\\robotica\\lib\\site-packages\\scipy\\optimize\\_lsq\\trf_linear.py',
   'PYMODULE'),
  ('scipy.optimize._lsq.common',
   'c:\\users\\pc\\miniconda3\\envs\\robotica\\lib\\site-packages\\scipy\\optimize\\_lsq\\common.py',
   'PYMODULE'),
  ('scipy.optimize._lsq.least_squares',
   'c:\\users\\pc\\miniconda3\\envs\\robotica\\lib\\site-packages\\scipy\\optimize\\_lsq\\least_squares.py',
   'PYMODULE'),
  ('scipy.optimize._lsq.dogbox',
   'c:\\users\\pc\\miniconda3\\envs\\robotica\\lib\\site-packages\\scipy\\optimize\\_lsq\\dogbox.py',
   'PYMODULE'),
  ('scipy.optimize._lsq.trf',
   'c:\\users\\pc\\miniconda3\\envs\\robotica\\lib\\site-packages\\scipy\\optimize\\_lsq\\trf.py',
   'PYMODULE'),
  ('scipy.optimize._lsq',
   'c:\\users\\pc\\miniconda3\\envs\\robotica\\lib\\site-packages\\scipy\\optimize\\_lsq\\__init__.py',
   'PYMODULE'),
  ('scipy.optimize._differentialevolution',
   'c:\\users\\pc\\miniconda3\\envs\\robotica\\lib\\site-packages\\scipy\\optimize\\_differentialevolution.py',
   'PYMODULE'),
  ('scipy.optimize._lsap',
   'c:\\users\\pc\\miniconda3\\envs\\robotica\\lib\\site-packages\\scipy\\optimize\\_lsap.py',
   'PYMODULE'),
  ('scipy.optimize._linprog',
   'c:\\users\\pc\\miniconda3\\envs\\robotica\\lib\\site-packages\\scipy\\optimize\\_linprog.py',
   'PYMODULE'),
  ('scipy.optimize._linprog_util',
   'c:\\users\\pc\\miniconda3\\envs\\robotica\\lib\\site-packages\\scipy\\optimize\\_linprog_util.py',
   'PYMODULE'),
  ('scipy.optimize._remove_redundancy',
   'c:\\users\\pc\\miniconda3\\envs\\robotica\\lib\\site-packages\\scipy\\optimize\\_remove_redundancy.py',
   'PYMODULE'),
  ('scipy.linalg.blas',
   'c:\\users\\pc\\miniconda3\\envs\\robotica\\lib\\site-packages\\scipy\\linalg\\blas.py',
   'PYMODULE'),
  ('scipy.optimize._linprog_rs',
   'c:\\users\\pc\\miniconda3\\envs\\robotica\\lib\\site-packages\\scipy\\optimize\\_linprog_rs.py',
   'PYMODULE'),
  ('scipy.optimize._linprog_simplex',
   'c:\\users\\pc\\miniconda3\\envs\\robotica\\lib\\site-packages\\scipy\\optimize\\_linprog_simplex.py',
   'PYMODULE'),
  ('scipy.optimize._linprog_ip',
   'c:\\users\\pc\\miniconda3\\envs\\robotica\\lib\\site-packages\\scipy\\optimize\\_linprog_ip.py',
   'PYMODULE'),
  ('scipy.optimize._basinhopping',
   'c:\\users\\pc\\miniconda3\\envs\\robotica\\lib\\site-packages\\scipy\\optimize\\_basinhopping.py',
   'PYMODULE'),
  ('scipy.optimize._nnls',
   'c:\\users\\pc\\miniconda3\\envs\\robotica\\lib\\site-packages\\scipy\\optimize\\_nnls.py',
   'PYMODULE'),
  ('scipy.optimize.slsqp',
   'c:\\users\\pc\\miniconda3\\envs\\robotica\\lib\\site-packages\\scipy\\optimize\\slsqp.py',
   'PYMODULE'),
  ('scipy.optimize.cobyla',
   'c:\\users\\pc\\miniconda3\\envs\\robotica\\lib\\site-packages\\scipy\\optimize\\cobyla.py',
   'PYMODULE'),
  ('scipy.optimize.tnc',
   'c:\\users\\pc\\miniconda3\\envs\\robotica\\lib\\site-packages\\scipy\\optimize\\tnc.py',
   'PYMODULE'),
  ('scipy.optimize.lbfgsb',
   'c:\\users\\pc\\miniconda3\\envs\\robotica\\lib\\site-packages\\scipy\\optimize\\lbfgsb.py',
   'PYMODULE'),
  ('scipy.optimize.minpack',
   'c:\\users\\pc\\miniconda3\\envs\\robotica\\lib\\site-packages\\scipy\\optimize\\minpack.py',
   'PYMODULE'),
  ('scipy.optimize._root_scalar',
   'c:\\users\\pc\\miniconda3\\envs\\robotica\\lib\\site-packages\\scipy\\optimize\\_root_scalar.py',
   'PYMODULE'),
  ('scipy.optimize.zeros',
   'c:\\users\\pc\\miniconda3\\envs\\robotica\\lib\\site-packages\\scipy\\optimize\\zeros.py',
   'PYMODULE'),
  ('scipy.optimize._root',
   'c:\\users\\pc\\miniconda3\\envs\\robotica\\lib\\site-packages\\scipy\\optimize\\_root.py',
   'PYMODULE'),
  ('scipy.optimize._spectral',
   'c:\\users\\pc\\miniconda3\\envs\\robotica\\lib\\site-packages\\scipy\\optimize\\_spectral.py',
   'PYMODULE'),
  ('scipy.optimize.linesearch',
   'c:\\users\\pc\\miniconda3\\envs\\robotica\\lib\\site-packages\\scipy\\optimize\\linesearch.py',
   'PYMODULE'),
  ('scipy.optimize.nonlin',
   'c:\\users\\pc\\miniconda3\\envs\\robotica\\lib\\site-packages\\scipy\\optimize\\nonlin.py',
   'PYMODULE'),
  ('scipy.optimize._minimize',
   'c:\\users\\pc\\miniconda3\\envs\\robotica\\lib\\site-packages\\scipy\\optimize\\_minimize.py',
   'PYMODULE'),
  ('scipy.optimize._trustregion_constr',
   'c:\\users\\pc\\miniconda3\\envs\\robotica\\lib\\site-packages\\scipy\\optimize\\_trustregion_constr\\__init__.py',
   'PYMODULE'),
  ('scipy.optimize._trustregion_constr.minimize_trustregion_constr',
   'c:\\users\\pc\\miniconda3\\envs\\robotica\\lib\\site-packages\\scipy\\optimize\\_trustregion_constr\\minimize_trustregion_constr.py',
   'PYMODULE'),
  ('scipy.optimize._trustregion_constr.report',
   'c:\\users\\pc\\miniconda3\\envs\\robotica\\lib\\site-packages\\scipy\\optimize\\_trustregion_constr\\report.py',
   'PYMODULE'),
  ('scipy.optimize._trustregion_constr.tr_interior_point',
   'c:\\users\\pc\\miniconda3\\envs\\robotica\\lib\\site-packages\\scipy\\optimize\\_trustregion_constr\\tr_interior_point.py',
   'PYMODULE'),
  ('scipy.optimize._trustregion_constr.canonical_constraint',
   'c:\\users\\pc\\miniconda3\\envs\\robotica\\lib\\site-packages\\scipy\\optimize\\_trustregion_constr\\canonical_constraint.py',
   'PYMODULE'),
  ('scipy.optimize._trustregion_constr.equality_constrained_sqp',
   'c:\\users\\pc\\miniconda3\\envs\\robotica\\lib\\site-packages\\scipy\\optimize\\_trustregion_constr\\equality_constrained_sqp.py',
   'PYMODULE'),
  ('scipy.optimize._trustregion_constr.qp_subproblem',
   'c:\\users\\pc\\miniconda3\\envs\\robotica\\lib\\site-packages\\scipy\\optimize\\_trustregion_constr\\qp_subproblem.py',
   'PYMODULE'),
  ('scipy.optimize._trustregion_constr.projections',
   'c:\\users\\pc\\miniconda3\\envs\\robotica\\lib\\site-packages\\scipy\\optimize\\_trustregion_constr\\projections.py',
   'PYMODULE'),
  ('scipy.optimize._trustregion_exact',
   'c:\\users\\pc\\miniconda3\\envs\\robotica\\lib\\site-packages\\scipy\\optimize\\_trustregion_exact.py',
   'PYMODULE'),
  ('scipy.optimize._trustregion',
   'c:\\users\\pc\\miniconda3\\envs\\robotica\\lib\\site-packages\\scipy\\optimize\\_trustregion.py',
   'PYMODULE'),
  ('scipy.optimize._trustregion_krylov',
   'c:\\users\\pc\\miniconda3\\envs\\robotica\\lib\\site-packages\\scipy\\optimize\\_trustregion_krylov.py',
   'PYMODULE'),
  ('scipy.optimize._trlib',
   'c:\\users\\pc\\miniconda3\\envs\\robotica\\lib\\site-packages\\scipy\\optimize\\_trlib\\__init__.py',
   'PYMODULE'),
  ('scipy.optimize._trustregion_ncg',
   'c:\\users\\pc\\miniconda3\\envs\\robotica\\lib\\site-packages\\scipy\\optimize\\_trustregion_ncg.py',
   'PYMODULE'),
  ('scipy.optimize._trustregion_dogleg',
   'c:\\users\\pc\\miniconda3\\envs\\robotica\\lib\\site-packages\\scipy\\optimize\\_trustregion_dogleg.py',
   'PYMODULE'),
  ('scipy.optimize.optimize',
   'c:\\users\\pc\\miniconda3\\envs\\robotica\\lib\\site-packages\\scipy\\optimize\\optimize.py',
   'PYMODULE'),
  ('scipy.sparse.linalg',
   'c:\\users\\pc\\miniconda3\\envs\\robotica\\lib\\site-packages\\scipy\\sparse\\linalg\\__init__.py',
   'PYMODULE'),
  ('scipy.sparse.linalg._expm_multiply',
   'c:\\users\\pc\\miniconda3\\envs\\robotica\\lib\\site-packages\\scipy\\sparse\\linalg\\_expm_multiply.py',
   'PYMODULE'),
  ('scipy.sparse.linalg._norm',
   'c:\\users\\pc\\miniconda3\\envs\\robotica\\lib\\site-packages\\scipy\\sparse\\linalg\\_norm.py',
   'PYMODULE'),
  ('scipy.sparse.linalg._onenormest',
   'c:\\users\\pc\\miniconda3\\envs\\robotica\\lib\\site-packages\\scipy\\sparse\\linalg\\_onenormest.py',
   'PYMODULE'),
  ('scipy.sparse.linalg.matfuncs',
   'c:\\users\\pc\\miniconda3\\envs\\robotica\\lib\\site-packages\\scipy\\sparse\\linalg\\matfuncs.py',
   'PYMODULE'),
  ('scipy.linalg.basic',
   'c:\\users\\pc\\miniconda3\\envs\\robotica\\lib\\site-packages\\scipy\\linalg\\basic.py',
   'PYMODULE'),
  ('scipy.linalg.decomp_svd',
   'c:\\users\\pc\\miniconda3\\envs\\robotica\\lib\\site-packages\\scipy\\linalg\\decomp_svd.py',
   'PYMODULE'),
  ('scipy.linalg.decomp',
   'c:\\users\\pc\\miniconda3\\envs\\robotica\\lib\\site-packages\\scipy\\linalg\\decomp.py',
   'PYMODULE'),
  ('scipy.linalg.misc',
   'c:\\users\\pc\\miniconda3\\envs\\robotica\\lib\\site-packages\\scipy\\linalg\\misc.py',
   'PYMODULE'),
  ('scipy.linalg.lapack',
   'c:\\users\\pc\\miniconda3\\envs\\robotica\\lib\\site-packages\\scipy\\linalg\\lapack.py',
   'PYMODULE'),
  ('scipy.linalg.flinalg',
   'c:\\users\\pc\\miniconda3\\envs\\robotica\\lib\\site-packages\\scipy\\linalg\\flinalg.py',
   'PYMODULE'),
  ('scipy.sparse.linalg.eigen',
   'c:\\users\\pc\\miniconda3\\envs\\robotica\\lib\\site-packages\\scipy\\sparse\\linalg\\eigen\\__init__.py',
   'PYMODULE'),
  ('scipy.sparse.linalg.eigen.lobpcg',
   'c:\\users\\pc\\miniconda3\\envs\\robotica\\lib\\site-packages\\scipy\\sparse\\linalg\\eigen\\lobpcg\\__init__.py',
   'PYMODULE'),
  ('scipy.sparse.linalg.eigen.lobpcg.lobpcg',
   'c:\\users\\pc\\miniconda3\\envs\\robotica\\lib\\site-packages\\scipy\\sparse\\linalg\\eigen\\lobpcg\\lobpcg.py',
   'PYMODULE'),
  ('scipy.sparse.linalg.eigen.arpack',
   'c:\\users\\pc\\miniconda3\\envs\\robotica\\lib\\site-packages\\scipy\\sparse\\linalg\\eigen\\arpack\\__init__.py',
   'PYMODULE'),
  ('scipy.sparse.linalg.eigen.arpack.arpack',
   'c:\\users\\pc\\miniconda3\\envs\\robotica\\lib\\site-packages\\scipy\\sparse\\linalg\\eigen\\arpack\\arpack.py',
   'PYMODULE'),
  ('scipy._lib._threadsafety',
   'c:\\users\\pc\\miniconda3\\envs\\robotica\\lib\\site-packages\\scipy\\_lib\\_threadsafety.py',
   'PYMODULE'),
  ('scipy._lib.decorator',
   'c:\\users\\pc\\miniconda3\\envs\\robotica\\lib\\site-packages\\scipy\\_lib\\decorator.py',
   'PYMODULE'),
  ('scipy.sparse.linalg.interface',
   'c:\\users\\pc\\miniconda3\\envs\\robotica\\lib\\site-packages\\scipy\\sparse\\linalg\\interface.py',
   'PYMODULE'),
  ('scipy.sparse.linalg.dsolve',
   'c:\\users\\pc\\miniconda3\\envs\\robotica\\lib\\site-packages\\scipy\\sparse\\linalg\\dsolve\\__init__.py',
   'PYMODULE'),
  ('scipy.sparse.linalg.dsolve._add_newdocs',
   'c:\\users\\pc\\miniconda3\\envs\\robotica\\lib\\site-packages\\scipy\\sparse\\linalg\\dsolve\\_add_newdocs.py',
   'PYMODULE'),
  ('scipy.sparse.linalg.dsolve.linsolve',
   'c:\\users\\pc\\miniconda3\\envs\\robotica\\lib\\site-packages\\scipy\\sparse\\linalg\\dsolve\\linsolve.py',
   'PYMODULE'),
  ('scipy.sparse.linalg.isolve',
   'c:\\users\\pc\\miniconda3\\envs\\robotica\\lib\\site-packages\\scipy\\sparse\\linalg\\isolve\\__init__.py',
   'PYMODULE'),
  ('scipy.sparse.linalg.isolve._gcrotmk',
   'c:\\users\\pc\\miniconda3\\envs\\robotica\\lib\\site-packages\\scipy\\sparse\\linalg\\isolve\\_gcrotmk.py',
   'PYMODULE'),
  ('scipy.sparse.linalg.isolve.utils',
   'c:\\users\\pc\\miniconda3\\envs\\robotica\\lib\\site-packages\\scipy\\sparse\\linalg\\isolve\\utils.py',
   'PYMODULE'),
  ('scipy.sparse.linalg.isolve.lsmr',
   'c:\\users\\pc\\miniconda3\\envs\\robotica\\lib\\site-packages\\scipy\\sparse\\linalg\\isolve\\lsmr.py',
   'PYMODULE'),
  ('scipy.sparse.linalg.isolve.lsqr',
   'c:\\users\\pc\\miniconda3\\envs\\robotica\\lib\\site-packages\\scipy\\sparse\\linalg\\isolve\\lsqr.py',
   'PYMODULE'),
  ('scipy.sparse.linalg.isolve.lgmres',
   'c:\\users\\pc\\miniconda3\\envs\\robotica\\lib\\site-packages\\scipy\\sparse\\linalg\\isolve\\lgmres.py',
   'PYMODULE'),
  ('scipy.sparse.linalg.isolve.minres',
   'c:\\users\\pc\\miniconda3\\envs\\robotica\\lib\\site-packages\\scipy\\sparse\\linalg\\isolve\\minres.py',
   'PYMODULE'),
  ('scipy.sparse.linalg.isolve.iterative',
   'c:\\users\\pc\\miniconda3\\envs\\robotica\\lib\\site-packages\\scipy\\sparse\\linalg\\isolve\\iterative.py',
   'PYMODULE'),
  ('scipy.integrate._ivp.radau',
   'c:\\users\\pc\\miniconda3\\envs\\robotica\\lib\\site-packages\\scipy\\integrate\\_ivp\\radau.py',
   'PYMODULE'),
  ('scipy.integrate._ivp.rk',
   'c:\\users\\pc\\miniconda3\\envs\\robotica\\lib\\site-packages\\scipy\\integrate\\_ivp\\rk.py',
   'PYMODULE'),
  ('scipy.integrate._ivp.ivp',
   'c:\\users\\pc\\miniconda3\\envs\\robotica\\lib\\site-packages\\scipy\\integrate\\_ivp\\ivp.py',
   'PYMODULE'),
  ('scipy.integrate._ivp.dop853_coefficients',
   'c:\\users\\pc\\miniconda3\\envs\\robotica\\lib\\site-packages\\scipy\\integrate\\_ivp\\dop853_coefficients.py',
   'PYMODULE'),
  ('scipy.integrate._bvp',
   'c:\\users\\pc\\miniconda3\\envs\\robotica\\lib\\site-packages\\scipy\\integrate\\_bvp.py',
   'PYMODULE'),
  ('scipy.interpolate',
   'c:\\users\\pc\\miniconda3\\envs\\robotica\\lib\\site-packages\\scipy\\interpolate\\__init__.py',
   'PYMODULE'),
  ('scipy.interpolate._pade',
   'c:\\users\\pc\\miniconda3\\envs\\robotica\\lib\\site-packages\\scipy\\interpolate\\_pade.py',
   'PYMODULE'),
  ('scipy.interpolate._bsplines',
   'c:\\users\\pc\\miniconda3\\envs\\robotica\\lib\\site-packages\\scipy\\interpolate\\_bsplines.py',
   'PYMODULE'),
  ('scipy.interpolate._fitpack_impl',
   'c:\\users\\pc\\miniconda3\\envs\\robotica\\lib\\site-packages\\scipy\\interpolate\\_fitpack_impl.py',
   'PYMODULE'),
  ('scipy.interpolate.ndgriddata',
   'c:\\users\\pc\\miniconda3\\envs\\robotica\\lib\\site-packages\\scipy\\interpolate\\ndgriddata.py',
   'PYMODULE'),
  ('scipy.interpolate._cubic',
   'c:\\users\\pc\\miniconda3\\envs\\robotica\\lib\\site-packages\\scipy\\interpolate\\_cubic.py',
   'PYMODULE'),
  ('scipy.interpolate.polyint',
   'c:\\users\\pc\\miniconda3\\envs\\robotica\\lib\\site-packages\\scipy\\interpolate\\polyint.py',
   'PYMODULE'),
  ('scipy.interpolate.rbf',
   'c:\\users\\pc\\miniconda3\\envs\\robotica\\lib\\site-packages\\scipy\\interpolate\\rbf.py',
   'PYMODULE'),
  ('scipy.interpolate.fitpack2',
   'c:\\users\\pc\\miniconda3\\envs\\robotica\\lib\\site-packages\\scipy\\interpolate\\fitpack2.py',
   'PYMODULE'),
  ('scipy.interpolate.interpolate',
   'c:\\users\\pc\\miniconda3\\envs\\robotica\\lib\\site-packages\\scipy\\interpolate\\interpolate.py',
   'PYMODULE'),
  ('scipy.interpolate.fitpack',
   'c:\\users\\pc\\miniconda3\\envs\\robotica\\lib\\site-packages\\scipy\\interpolate\\fitpack.py',
   'PYMODULE'),
  ('scipy.integrate._ode',
   'c:\\users\\pc\\miniconda3\\envs\\robotica\\lib\\site-packages\\scipy\\integrate\\_ode.py',
   'PYMODULE'),
  ('scipy.integrate.quadpack',
   'c:\\users\\pc\\miniconda3\\envs\\robotica\\lib\\site-packages\\scipy\\integrate\\quadpack.py',
   'PYMODULE'),
  ('scipy.integrate.odepack',
   'c:\\users\\pc\\miniconda3\\envs\\robotica\\lib\\site-packages\\scipy\\integrate\\odepack.py',
   'PYMODULE'),
  ('scipy.integrate._quadrature',
   'c:\\users\\pc\\miniconda3\\envs\\robotica\\lib\\site-packages\\scipy\\integrate\\_quadrature.py',
   'PYMODULE'),
  ('scipy.special.spfun_stats',
   'c:\\users\\pc\\miniconda3\\envs\\robotica\\lib\\site-packages\\scipy\\special\\spfun_stats.py',
   'PYMODULE'),
  ('scipy.special._logsumexp',
   'c:\\users\\pc\\miniconda3\\envs\\robotica\\lib\\site-packages\\scipy\\special\\_logsumexp.py',
   'PYMODULE'),
  ('scipy.special._basic',
   'c:\\users\\pc\\miniconda3\\envs\\robotica\\lib\\site-packages\\scipy\\special\\_basic.py',
   'PYMODULE'),
  ('scipy.special.orthogonal',
   'c:\\users\\pc\\miniconda3\\envs\\robotica\\lib\\site-packages\\scipy\\special\\orthogonal.py',
   'PYMODULE'),
  ('scipy.special.sf_error',
   'c:\\users\\pc\\miniconda3\\envs\\robotica\\lib\\site-packages\\scipy\\special\\sf_error.py',
   'PYMODULE'),
  ('scipy.linalg',
   'c:\\users\\pc\\miniconda3\\envs\\robotica\\lib\\site-packages\\scipy\\linalg\\__init__.py',
   'PYMODULE'),
  ('scipy.linalg._decomp_cossin',
   'c:\\users\\pc\\miniconda3\\envs\\robotica\\lib\\site-packages\\scipy\\linalg\\_decomp_cossin.py',
   'PYMODULE'),
  ('scipy.linalg._sketches',
   'c:\\users\\pc\\miniconda3\\envs\\robotica\\lib\\site-packages\\scipy\\linalg\\_sketches.py',
   'PYMODULE'),
  ('scipy.linalg._procrustes',
   'c:\\users\\pc\\miniconda3\\envs\\robotica\\lib\\site-packages\\scipy\\linalg\\_procrustes.py',
   'PYMODULE'),
  ('scipy.linalg._solvers',
   'c:\\users\\pc\\miniconda3\\envs\\robotica\\lib\\site-packages\\scipy\\linalg\\_solvers.py',
   'PYMODULE'),
  ('scipy.linalg.special_matrices',
   'c:\\users\\pc\\miniconda3\\envs\\robotica\\lib\\site-packages\\scipy\\linalg\\special_matrices.py',
   'PYMODULE'),
  ('scipy.linalg.matfuncs',
   'c:\\users\\pc\\miniconda3\\envs\\robotica\\lib\\site-packages\\scipy\\linalg\\matfuncs.py',
   'PYMODULE'),
  ('scipy.linalg._matfuncs_inv_ssq',
   'c:\\users\\pc\\miniconda3\\envs\\robotica\\lib\\site-packages\\scipy\\linalg\\_matfuncs_inv_ssq.py',
   'PYMODULE'),
  ('scipy.linalg._matfuncs_sqrtm',
   'c:\\users\\pc\\miniconda3\\envs\\robotica\\lib\\site-packages\\scipy\\linalg\\_matfuncs_sqrtm.py',
   'PYMODULE'),
  ('scipy.linalg._expm_frechet',
   'c:\\users\\pc\\miniconda3\\envs\\robotica\\lib\\site-packages\\scipy\\linalg\\_expm_frechet.py',
   'PYMODULE'),
  ('scipy.linalg._decomp_polar',
   'c:\\users\\pc\\miniconda3\\envs\\robotica\\lib\\site-packages\\scipy\\linalg\\_decomp_polar.py',
   'PYMODULE'),
  ('scipy.linalg.decomp_schur',
   'c:\\users\\pc\\miniconda3\\envs\\robotica\\lib\\site-packages\\scipy\\linalg\\decomp_schur.py',
   'PYMODULE'),
  ('scipy.linalg._decomp_qz',
   'c:\\users\\pc\\miniconda3\\envs\\robotica\\lib\\site-packages\\scipy\\linalg\\_decomp_qz.py',
   'PYMODULE'),
  ('scipy.linalg.decomp_qr',
   'c:\\users\\pc\\miniconda3\\envs\\robotica\\lib\\site-packages\\scipy\\linalg\\decomp_qr.py',
   'PYMODULE'),
  ('scipy.linalg.decomp_cholesky',
   'c:\\users\\pc\\miniconda3\\envs\\robotica\\lib\\site-packages\\scipy\\linalg\\decomp_cholesky.py',
   'PYMODULE'),
  ('scipy.linalg._decomp_ldl',
   'c:\\users\\pc\\miniconda3\\envs\\robotica\\lib\\site-packages\\scipy\\linalg\\_decomp_ldl.py',
   'PYMODULE'),
  ('scipy.linalg.decomp_lu',
   'c:\\users\\pc\\miniconda3\\envs\\robotica\\lib\\site-packages\\scipy\\linalg\\decomp_lu.py',
   'PYMODULE'),
  ('scipy._lib._util',
   'c:\\users\\pc\\miniconda3\\envs\\robotica\\lib\\site-packages\\scipy\\_lib\\_util.py',
   'PYMODULE'),
  ('scipy.spatial._geometric_slerp',
   'c:\\users\\pc\\miniconda3\\envs\\robotica\\lib\\site-packages\\scipy\\spatial\\_geometric_slerp.py',
   'PYMODULE'),
  ('scipy.spatial._procrustes',
   'c:\\users\\pc\\miniconda3\\envs\\robotica\\lib\\site-packages\\scipy\\spatial\\_procrustes.py',
   'PYMODULE'),
  ('scipy.spatial._plotutils',
   'c:\\users\\pc\\miniconda3\\envs\\robotica\\lib\\site-packages\\scipy\\spatial\\_plotutils.py',
   'PYMODULE'),
  ('scipy.spatial._spherical_voronoi',
   'c:\\users\\pc\\miniconda3\\envs\\robotica\\lib\\site-packages\\scipy\\spatial\\_spherical_voronoi.py',
   'PYMODULE'),
  ('scipy.spatial.kdtree',
   'c:\\users\\pc\\miniconda3\\envs\\robotica\\lib\\site-packages\\scipy\\spatial\\kdtree.py',
   'PYMODULE'),
  ('scipy.spatial.transform._rotation_spline',
   'c:\\users\\pc\\miniconda3\\envs\\robotica\\lib\\site-packages\\scipy\\spatial\\transform\\_rotation_spline.py',
   'PYMODULE'),
  ('scipy.spatial.transform.rotation',
   'c:\\users\\pc\\miniconda3\\envs\\robotica\\lib\\site-packages\\scipy\\spatial\\transform\\rotation.py',
   'PYMODULE'),
  ('scipy.spatial.transform._rotation_groups',
   'c:\\users\\pc\\miniconda3\\envs\\robotica\\lib\\site-packages\\scipy\\spatial\\transform\\_rotation_groups.py',
   'PYMODULE'),
  ('scipy.constants',
   'c:\\users\\pc\\miniconda3\\envs\\robotica\\lib\\site-packages\\scipy\\constants\\__init__.py',
   'PYMODULE'),
  ('scipy.constants.constants',
   'c:\\users\\pc\\miniconda3\\envs\\robotica\\lib\\site-packages\\scipy\\constants\\constants.py',
   'PYMODULE'),
  ('scipy.constants.codata',
   'c:\\users\\pc\\miniconda3\\envs\\robotica\\lib\\site-packages\\scipy\\constants\\codata.py',
   'PYMODULE'),
  ('operaciones', 'C:\\Users\\PC\\Desktop\\ROBOTO\\operaciones.py', 'PYMODULE'),
  ('inverso', 'C:\\Users\\PC\\Desktop\\ROBOTO\\inverso.py', 'PYMODULE'),
  ('texttable',
   'c:\\users\\pc\\miniconda3\\envs\\robotica\\lib\\site-packages\\texttable.py',
   'PYMODULE'),
  ('main', 'C:\\Users\\PC\\Desktop\\ROBOTO\\main.py', 'PYMODULE'),
  ('ui_secundaria',
   'C:\\Users\\PC\\Desktop\\ROBOTO\\ui_secundaria.py',
   'PYMODULE'),
  ('PyQt5',
   'c:\\users\\pc\\miniconda3\\envs\\robotica\\lib\\site-packages\\PyQt5\\__init__.py',
   'PYMODULE'),
  ('files_rc', 'C:\\Users\\PC\\Desktop\\ROBOTO\\files_rc.py', 'PYMODULE'),
  ('PySide2',
   'c:\\users\\pc\\miniconda3\\envs\\robotica\\lib\\site-packages\\PySide2\\__init__.py',
   'PYMODULE'),
  ('shiboken2',
   'c:\\users\\pc\\miniconda3\\envs\\robotica\\lib\\site-packages\\shiboken2\\__init__.py',
   'PYMODULE'),
  ('ui_principal',
   'C:\\Users\\PC\\Desktop\\ROBOTO\\ui_principal.py',
   'PYMODULE')])
